tests/tb_OTTER/tb_OTTER.vcd
$version Generated by VerilatedVcd $end
$timescale 1ps $end
 $scope module $rootio $end
 $upscope $end
 $scope module tb_OTTER $end
  $var wire 1 m! CLK $end
  $var wire 1 n! RST $end
  $scope module UUT $end
   $var wire 1 m! CLK $end
   $var wire 1 n! RST $end
   $var wire 1 p! mem_err $end
   $scope module FE_DE $end
    $var wire 32 G IR [31:0] $end
    $var wire 32 H PC [31:0] $end
    $var wire 32 I NEXT_PC [31:0] $end
    $var wire 32 J RS1 [31:0] $end
    $var wire 32 K RS2 [31:0] $end
    $var wire 32 L IMM [31:0] $end
    $var wire 1 M SRC_A_SEL $end
    $var wire 2 N SRC_B_SEL [1:0] $end
    $var wire 4 O ALU_CTRL [3:0] $end
    $var wire 32 P ALU_RESULT [31:0] $end
    $var wire 1 Q MEM_WRITE $end
    $var wire 1 R MEM_READ $end
    $var wire 1 S REG_WRITE $end
    $var wire 32 T MEM_DATA [31:0] $end
    $var wire 2 U RF_MUX_SEL [1:0] $end
    $var wire 5 V DEST_REG [4:0] $end
    $var wire 32 W DEST_REG_DATA [31:0] $end
    $var wire 1 X ERR $end
    $var wire 32 Y DIN2 [31:0] $end
   $upscope $end
   $scope module DE_EX $end
    $var wire 32 S! IR [31:0] $end
    $var wire 32 T! PC [31:0] $end
    $var wire 32 U! NEXT_PC [31:0] $end
    $var wire 32 V! RS1 [31:0] $end
    $var wire 32 W! RS2 [31:0] $end
    $var wire 32 X! IMM [31:0] $end
    $var wire 1 Y! SRC_A_SEL $end
    $var wire 2 Z! SRC_B_SEL [1:0] $end
    $var wire 4 [! ALU_CTRL [3:0] $end
    $var wire 32 \! ALU_RESULT [31:0] $end
    $var wire 1 ]! MEM_WRITE $end
    $var wire 1 ^! MEM_READ $end
    $var wire 1 _! REG_WRITE $end
    $var wire 32 `! MEM_DATA [31:0] $end
    $var wire 2 a! RF_MUX_SEL [1:0] $end
    $var wire 5 b! DEST_REG [4:0] $end
    $var wire 32 c! DEST_REG_DATA [31:0] $end
    $var wire 1 d! ERR $end
    $var wire 32 e! DIN2 [31:0] $end
   $upscope $end
   $scope module EX_MEM $end
    $var wire 32 Z IR [31:0] $end
    $var wire 32 [ PC [31:0] $end
    $var wire 32 \ NEXT_PC [31:0] $end
    $var wire 32 ] RS1 [31:0] $end
    $var wire 32 ^ RS2 [31:0] $end
    $var wire 32 _ IMM [31:0] $end
    $var wire 1 ` SRC_A_SEL $end
    $var wire 2 a SRC_B_SEL [1:0] $end
    $var wire 4 b ALU_CTRL [3:0] $end
    $var wire 32 c ALU_RESULT [31:0] $end
    $var wire 1 d MEM_WRITE $end
    $var wire 1 e MEM_READ $end
    $var wire 1 f REG_WRITE $end
    $var wire 32 g MEM_DATA [31:0] $end
    $var wire 2 h RF_MUX_SEL [1:0] $end
    $var wire 5 i DEST_REG [4:0] $end
    $var wire 32 j DEST_REG_DATA [31:0] $end
    $var wire 1 k ERR $end
    $var wire 32 l DIN2 [31:0] $end
   $upscope $end
   $scope module MEM_WB $end
    $var wire 32 m IR [31:0] $end
    $var wire 32 n PC [31:0] $end
    $var wire 32 o NEXT_PC [31:0] $end
    $var wire 32 p RS1 [31:0] $end
    $var wire 32 q RS2 [31:0] $end
    $var wire 32 r IMM [31:0] $end
    $var wire 1 s SRC_A_SEL $end
    $var wire 2 t SRC_B_SEL [1:0] $end
    $var wire 4 u ALU_CTRL [3:0] $end
    $var wire 32 v ALU_RESULT [31:0] $end
    $var wire 1 w MEM_WRITE $end
    $var wire 1 x MEM_READ $end
    $var wire 1 y REG_WRITE $end
    $var wire 32 z MEM_DATA [31:0] $end
    $var wire 2 { RF_MUX_SEL [1:0] $end
    $var wire 5 | DEST_REG [4:0] $end
    $var wire 32 } DEST_REG_DATA [31:0] $end
    $var wire 1 ~ ERR $end
    $var wire 32 !! DIN2 [31:0] $end
   $upscope $end
   $var wire 32 "! ir [31:0] $end
   $var wire 32 #! pc_in [31:0] $end
   $var wire 32 $! pc_out [31:0] $end
   $var wire 32 #! nextpc [31:0] $end
   $var wire 32 q! u_type [31:0] $end
   $var wire 32 r! i_type [31:0] $end
   $var wire 32 s! s_type [31:0] $end
   $var wire 32 t! b_type [31:0] $end
   $var wire 32 u! j_type [31:0] $end
   $var wire 32 % rs1 [31:0] $end
   $var wire 32 & rs2 [31:0] $end
   $var wire 3 %! pc_sel [2:0] $end
   $var wire 1 &! src_a_sel $end
   $var wire 2 '! src_b_sel [1:0] $end
   $var wire 4 (! alu_ctrl [3:0] $end
   $var wire 1 )! regwrite $end
   $var wire 1 *! memwrite $end
   $var wire 1 +! memread $end
   $var wire 2 ,! rf_sel [1:0] $end
   $var wire 3 -! imm_sel [2:0] $end
   $var wire 32 .! imm [31:0] $end
   $var wire 32 f! src_a_out [31:0] $end
   $var wire 32 g! src_b_out [31:0] $end
   $var wire 32 h! alu_result [31:0] $end
   $var wire 32 /! memout [31:0] $end
   $var wire 1 0! memerr $end
   $var wire 1 i! zero $end
   $var wire 32 j! fwd_a_out [31:0] $end
   $var wire 32 k! fwd_b_out [31:0] $end
   $var wire 2 1! fwd_a_sel [1:0] $end
   $var wire 2 2! fwd_b_sel [1:0] $end
   $var wire 2 { rf_mux_sel [1:0] $end
   $var wire 32 o rf_nextPC [31:0] $end
   $var wire 32 v rf_alu_result [31:0] $end
   $var wire 32 3! rf_rd [31:0] $end
   $var wire 2 4! sw_sel [1:0] $end
   $var wire 32 l! din2 [31:0] $end
   $var wire 1 5! stall $end
   $var wire 1 # flush $end
   $var wire 1 6! stall_mem_read $end
   $var wire 1 7! stall_mem_write $end
   $var wire 32 8! reg_result [31:0] $end
   $scope module FWD_A_MUX $end
    $var wire 2 1! SEL [1:0] $end
    $var wire 32 f! D0 [31:0] $end
    $var wire 32 c D1 [31:0] $end
    $var wire 32 v D2 [31:0] $end
    $var wire 32 /! D3 [31:0] $end
    $var wire 32 j! DOUT [31:0] $end
   $upscope $end
   $scope module FWD_B_MUX $end
    $var wire 2 2! SEL [1:0] $end
    $var wire 32 g! D0 [31:0] $end
    $var wire 32 c D1 [31:0] $end
    $var wire 32 v D2 [31:0] $end
    $var wire 32 /! D3 [31:0] $end
    $var wire 32 k! DOUT [31:0] $end
   $upscope $end
   $scope module OTTER_ALU $end
    $var wire 32 j! SRC_A [31:0] $end
    $var wire 32 k! SRC_B [31:0] $end
    $var wire 4 [! ALU_CTRL [3:0] $end
    $var wire 32 h! RESULT [31:0] $end
    $var wire 1 i! ZERO $end
   $upscope $end
   $scope module OTTER_CU $end
    $var wire 7 9! OPCODE [6:0] $end
    $var wire 3 :! FUNC3 [2:0] $end
    $var wire 1 ;! FUNC7 $end
    $var wire 1 )! REG_WRITE $end
    $var wire 1 *! MEM_WRITE $end
    $var wire 1 +! MEM_READ2 $end
    $var wire 1 <! BRANCH $end
    $var wire 1 =! JUMP $end
    $var wire 2 ,! RF_SEL [1:0] $end
    $var wire 4 (! ALU_FUN [3:0] $end
    $var wire 1 &! ALU_SRCA $end
    $var wire 2 '! ALU_SRCB [1:0] $end
    $var wire 3 %! PC_SRC [2:0] $end
    $var wire 3 -! IMM_SEL [2:0] $end
    $var wire 3 >! BR_TYPE [2:0] $end
   $upscope $end
   $scope module OTTER_HU $end
    $var wire 32 G IR [31:0] $end
    $var wire 5 i RD_M [4:0] $end
    $var wire 5 | RD_W [4:0] $end
    $var wire 5 ?! RS1 [4:0] $end
    $var wire 5 @! RS2 [4:0] $end
    $var wire 1 *! MEM_WRITE_DE $end
    $var wire 1 6! MEM_READ_EX $end
    $var wire 1 x MEM_READ_WB $end
    $var wire 1 d MEM_WRITE_EX $end
    $var wire 1 v! JUMP $end
    $var wire 32 w! BRANCH_ARG1 [31:0] $end
    $var wire 32 x! BRANCH_ARG2 [31:0] $end
    $var wire 1 y! BRANCH $end
    $var wire 3 z! BRANCH_TYPE [2:0] $end
    $var wire 1 $ BRANCH_TAKEN $end
    $var wire 2 1! FWD_A_SEL [1:0] $end
    $var wire 2 2! FWD_B_SEL [1:0] $end
    $var wire 2 4! SW_SEL [1:0] $end
    $var wire 1 5! STALL $end
    $var wire 1 # FLUSH $end
    $var wire 1 A! MEM_FWD1 $end
    $var wire 1 B! MEM_FWD2 $end
    $var wire 1 C! WB_FWD1 $end
    $var wire 1 D! WB_FWD2 $end
    $var wire 1 E! load_use $end
   $upscope $end
   $scope module OTTER_IG $end
    $var wire 25 F! IR [24:0] $end
    $var wire 3 -! IMM_SEL [2:0] $end
    $var wire 32 .! IMM [31:0] $end
    $var wire 32 G! U_TYPE [31:0] $end
    $var wire 32 H! I_TYPE [31:0] $end
    $var wire 32 I! S_TYPE [31:0] $end
    $var wire 32 J! B_TYPE [31:0] $end
    $var wire 32 K! J_TYPE [31:0] $end
   $upscope $end
   $scope module OTTER_MEM $end
    $var wire 32 {! ACTUAL_WIDTH [31:0] $end
    $var wire 32 $! MEM_ADDR1 [31:0] $end
    $var wire 32 c MEM_ADDR2 [31:0] $end
    $var wire 1 m! MEM_CLK $end
    $var wire 32 l MEM_DIN2 [31:0] $end
    $var wire 1 d MEM_WRITE2 $end
    $var wire 1 |! MEM_READ1 $end
    $var wire 1 e MEM_READ2 $end
    $var wire 32 }! IO_IN [31:0] $end
    $var wire 1 0! ERR $end
    $var wire 32 "! MEM_DOUT1 [31:0] $end
    $var wire 32 /! MEM_DOUT2 [31:0] $end
    $var wire 1 L! IO_WR $end
    $var wire 14 M! memAddr1 [13:0] $end
    $var wire 14 N! memAddr2 [13:0] $end
    $var wire 1 O! memWrite2 $end
    $var wire 32 P! memOut2 [31:0] $end
    $var wire 32 Q! ioIn_buffer [31:0] $end
   $upscope $end
   $scope module OTTER_PC $end
    $var wire 1 m! CLK $end
    $var wire 1 n! RST $end
    $var wire 1 R! PC_EN $end
    $var wire 32 #! PC_IN [31:0] $end
    $var wire 32 $! PC_OUT [31:0] $end
   $upscope $end
   $scope module OTTER_RF $end
    $var wire 1 m! CLK $end
    $var wire 5 ?! REG_ADDR1 [4:0] $end
    $var wire 5 @! REG_ADDR2 [4:0] $end
    $var wire 1 y WRITE_EN $end
    $var wire 5 | WRITE_ADDR [4:0] $end
    $var wire 32 3! WRITE_DATA [31:0] $end
    $var wire 32 % REG_1_DATA [31:0] $end
    $var wire 32 & REG_2_DATA [31:0] $end
    $var wire 32 ' register[0] [31:0] $end
    $var wire 32 ( register[1] [31:0] $end
    $var wire 32 ) register[2] [31:0] $end
    $var wire 32 * register[3] [31:0] $end
    $var wire 32 + register[4] [31:0] $end
    $var wire 32 , register[5] [31:0] $end
    $var wire 32 - register[6] [31:0] $end
    $var wire 32 . register[7] [31:0] $end
    $var wire 32 / register[8] [31:0] $end
    $var wire 32 0 register[9] [31:0] $end
    $var wire 32 1 register[10] [31:0] $end
    $var wire 32 2 register[11] [31:0] $end
    $var wire 32 3 register[12] [31:0] $end
    $var wire 32 4 register[13] [31:0] $end
    $var wire 32 5 register[14] [31:0] $end
    $var wire 32 6 register[15] [31:0] $end
    $var wire 32 7 register[16] [31:0] $end
    $var wire 32 8 register[17] [31:0] $end
    $var wire 32 9 register[18] [31:0] $end
    $var wire 32 : register[19] [31:0] $end
    $var wire 32 ; register[20] [31:0] $end
    $var wire 32 < register[21] [31:0] $end
    $var wire 32 = register[22] [31:0] $end
    $var wire 32 > register[23] [31:0] $end
    $var wire 32 ? register[24] [31:0] $end
    $var wire 32 @ register[25] [31:0] $end
    $var wire 32 A register[26] [31:0] $end
    $var wire 32 B register[27] [31:0] $end
    $var wire 32 C register[28] [31:0] $end
    $var wire 32 D register[29] [31:0] $end
    $var wire 32 E register[30] [31:0] $end
    $var wire 32 F register[31] [31:0] $end
    $scope module unnamedblk1 $end
     $var wire 32 o! i [31:0] $end
    $upscope $end
   $upscope $end
   $scope module PC_MUX $end
    $var wire 2 ~! SEL [1:0] $end
    $var wire 32 #! D0 [31:0] $end
    $var wire 32 !" D1 [31:0] $end
    $var wire 32 !" D2 [31:0] $end
    $var wire 32 !" D3 [31:0] $end
    $var wire 32 #! DOUT [31:0] $end
   $upscope $end
   $scope module RF_MUX $end
    $var wire 2 { SEL [1:0] $end
    $var wire 32 o D0 [31:0] $end
    $var wire 32 !" D1 [31:0] $end
    $var wire 32 /! D2 [31:0] $end
    $var wire 32 v D3 [31:0] $end
    $var wire 32 3! DOUT [31:0] $end
   $upscope $end
   $scope module SRC_A_MUX $end
    $var wire 1 Y! SEL $end
    $var wire 32 V! D0 [31:0] $end
    $var wire 32 X! D1 [31:0] $end
    $var wire 32 f! DOUT [31:0] $end
   $upscope $end
   $scope module SRC_B_MUX $end
    $var wire 2 Z! SEL [1:0] $end
    $var wire 32 W! D0 [31:0] $end
    $var wire 32 X! D1 [31:0] $end
    $var wire 32 T! D2 [31:0] $end
    $var wire 32 !" D3 [31:0] $end
    $var wire 32 g! DOUT [31:0] $end
   $upscope $end
   $scope module SW_MUX $end
    $var wire 2 4! SEL [1:0] $end
    $var wire 32 g! D0 [31:0] $end
    $var wire 32 k! D1 [31:0] $end
    $var wire 32 8! D2 [31:0] $end
    $var wire 32 v D3 [31:0] $end
    $var wire 32 l! DOUT [31:0] $end
   $upscope $end
  $upscope $end
 $upscope $end
$enddefinitions $end


#0
0#
0$
b00000000000000000000000000000000 %
b00000000000000000000000000000000 &
b00000000000000000000000000000000 '
b00000000000000000000000000000000 (
b00000000000000000000000000000000 )
b00000000000000000000000000000000 *
b00000000000000000000000000000000 +
b00000000000000000000000000000000 ,
b00000000000000000000000000000000 -
b00000000000000000000000000000000 .
b00000000000000000000000000000000 /
b00000000000000000000000000000000 0
b00000000000000000000000000000000 1
b00000000000000000000000000000000 2
b00000000000000000000000000000000 3
b00000000000000000000000000000000 4
b00000000000000000000000000000000 5
b00000000000000000000000000000000 6
b00000000000000000000000000000000 7
b00000000000000000000000000000000 8
b00000000000000000000000000000000 9
b00000000000000000000000000000000 :
b00000000000000000000000000000000 ;
b00000000000000000000000000000000 <
b00000000000000000000000000000000 =
b00000000000000000000000000000000 >
b00000000000000000000000000000000 ?
b00000000000000000000000000000000 @
b00000000000000000000000000000000 A
b00000000000000000000000000000000 B
b00000000000000000000000000000000 C
b00000000000000000000000000000000 D
b00000000000000000000000000000000 E
b00000000000000000000000000000000 F
b00000000000000000000000000000000 G
b00000000000000000000000000000000 H
b00000000000000000000000000000000 I
b00000000000000000000000000000000 J
b00000000000000000000000000000000 K
b00000000000000000000000000000000 L
0M
b00 N
b0000 O
b00000000000000000000000000000000 P
0Q
0R
0S
b00000000000000000000000000000000 T
b00 U
b00000 V
b00000000000000000000000000000000 W
0X
b00000000000000000000000000000000 Y
b00000000000000000000000000000000 Z
b00000000000000000000000000000000 [
b00000000000000000000000000000000 \
b00000000000000000000000000000000 ]
b00000000000000000000000000000000 ^
b00000000000000000000000000000000 _
0`
b00 a
b0000 b
b00000000000000000000000000000000 c
0d
0e
0f
b00000000000000000000000000000000 g
b00 h
b00000 i
b00000000000000000000000000000000 j
0k
b00000000000000000000000000000000 l
b00000000000000000000000000000000 m
b00000000000000000000000000000000 n
b00000000000000000000000000000000 o
b00000000000000000000000000000000 p
b00000000000000000000000000000000 q
b00000000000000000000000000000000 r
0s
b00 t
b0000 u
b00000000000000000000000000000000 v
0w
0x
0y
b00000000000000000000000000000000 z
b00 {
b00000 |
b00000000000000000000000000000000 }
0~
b00000000000000000000000000000000 !!
b00000000000000000000000000000000 "!
b00000000000000000000000000000100 #!
b00000000000000000000000000000000 $!
b000 %!
0&!
b00 '!
b0000 (!
0)!
0*!
0+!
b00 ,!
b000 -!
b00000000000000000000000000000000 .!
b00000000000000000000000000000000 /!
00!
b00 1!
b00 2!
b00000000000000000000000000000000 3!
b00 4!
05!
06!
07!
b00000000000000000000000000000000 8!
b0000000 9!
b000 :!
0;!
0<!
0=!
b000 >!
b00000 ?!
b00000 @!
0A!
0B!
0C!
0D!
0E!
b0000000000000000000000000 F!
b00000000000000000000000000000000 G!
b00000000000000000000000000000000 H!
b00000000000000000000000000000000 I!
b00000000000000000000000000000000 J!
b00000000000000000000000000000000 K!
0L!
b00000000000000 M!
b00000000000000 N!
0O!
b00000000000000000000000000000000 P!
b00000000000000000000000000000000 Q!
1R!
b00000000000000000000000000000000 S!
b00000000000000000000000000000000 T!
b00000000000000000000000000000000 U!
b00000000000000000000000000000000 V!
b00000000000000000000000000000000 W!
b00000000000000000000000000000000 X!
0Y!
b00 Z!
b0000 [!
b00000000000000000000000000000000 \!
0]!
0^!
0_!
b00000000000000000000000000000000 `!
b00 a!
b00000 b!
b00000000000000000000000000000000 c!
0d!
b00000000000000000000000000000000 e!
b00000000000000000000000000000000 f!
b00000000000000000000000000000000 g!
b00000000000000000000000000000000 h!
0i!
b00000000000000000000000000000000 j!
b00000000000000000000000000000000 k!
b00000000000000000000000000000000 l!
0m!
1n!
b00000000000000000000000000100000 o!
0p!
b00000000000000000000000000000000 q!
b00000000000000000000000000000000 r!
b00000000000000000000000000000000 s!
b00000000000000000000000000000000 t!
b00000000000000000000000000000000 u!
0v!
b00000000000000000000000000000000 w!
b00000000000000000000000000000000 x!
0y!
b000 z!
b00000000000000000000000000001110 {!
1|!
b00000000000000000000000000000000 }!
b00 ~!
b00000000000000000000000000000000 !"
#5000
#10000
b00000000101001010000010100010011 "!
1m!
#15000
0m!
#20000
1m!
#25000
0m!
#30000
1m!
#35000
0m!
#40000
1m!
#45000
0m!
#50000
1m!
#55000
0m!
#60000
1m!
#65000
0m!
#70000
1m!
#75000
0m!
#80000
1m!
#85000
0m!
#90000
1m!
#95000
0m!
#100000
1m!
#105000
0m!
#110000
1m!
#115000
0m!
#120000
1m!
#125000
0m!
#130000
1m!
#135000
0m!
#140000
1m!
#145000
0m!
#150000
1m!
#155000
0m!
#160000
1m!
#165000
0m!
#170000
1m!
#175000
0m!
#180000
1m!
#185000
0m!
#190000
1m!
#195000
0m!
#200000
b00000000101001010000010100010011 G
b00000000000000000000000000000100 I
b00000000000000000000000000001000 #!
b00000000000000000000000000000100 $!
b01 '!
1)!
b11 ,!
b00000000000000000000000000001010 .!
b0010011 9!
b01010 ?!
b01010 @!
b0000000010100101000001010 F!
b00000000101001010000000000000000 G!
b00000000000000000000000000001010 H!
b00000000000000000000000000001010 I!
b00000000000000000000000000001010 J!
b00000000000001010000000000001010 K!
b00000000000001 M!
1m!
0n!
#205000
b00000000101001010000010100010011 S!
b00000000000000000000000000000100 U!
b00000000000000000000000000001010 X!
b01 Z!
1_!
b11 a!
b01010 b!
b00000000000000000000000000001010 g!
b00000000000000000000000000001010 h!
1i!
b00000000000000000000000000001010 k!
b00000000000000000000000000001010 l!
0m!
#210000
b00000000101001000000010000110011 G
b00000000000000000000000000000100 H
b00000000000000000000000000001000 I
b00000000101001010000010100010011 Z
b00000000000000000000000000000100 \
b01 a
b00000000000000000000000000001010 c
1f
b11 h
b01010 i
b00000000000000000000000000001010 l
b00000000101001000000010000110011 "!
b00000000000000000000000000001100 #!
b00000000000000000000000000001000 $!
b00 '!
10!
b01 2!
b0110011 9!
b01000 ?!
1B!
b0000000010100100000001000 F!
b00000000101001000000000000000000 G!
b00000000000000000000000000001000 I!
b00000000000000000000000000001000 J!
b00000000000001000000000000001010 K!
b00000000000010 M!
b00000000000010 N!
1m!
#215000
b00000000101001000000010000110011 S!
b00000000000000000000000000000100 T!
b00000000000000000000000000001000 U!
b00 Z!
b01000 b!
b00000000000000000000000000000000 g!
b00000000000000000000000000000000 l!
0m!
#220000
b00000000000000000110010010110111 G
b00000000000000000000000000001000 H
b00000000000000000000000000001100 I
b00000000101001000000010000110011 Z
b00000000000000000000000000000100 [
b00000000000000000000000000001000 \
b00 a
b01000 i
b00000000000000000000000000000000 l
b00000000000000000000000000000100 o
b01 t
b00000000000000000000000000001010 v
1y
b11 {
b01010 |
1~
b00000000000000000110010010110111 "!
b00000000000000000000000000010000 #!
b00000000000000000000000000001100 $!
1&!
b1001 (!
b011 -!
b00000000000000000110000000000000 .!
b00 2!
b00000000000000000000000000001010 3!
b0110111 9!
b110 :!
b00000 ?!
b00000 @!
0B!
b0000000000000000011001001 F!
b00000000000000000110000000000000 G!
b00000000000000000000000000000000 H!
b00000000000000000000000000001001 I!
b00000000000000000000100000001000 J!
b00000000000000000110000000000000 K!
b00000000000011 M!
b00000000000000000000000000000000 h!
0i!
b00000000000000000000000000000000 k!
1m!
#225000
b00000000000000000110010010110111 S!
b00000000000000000000000000001000 T!
b00000000000000000000000000001100 U!
b00000000000000000110000000000000 X!
1Y!
b1001 [!
b01001 b!
b00000000000000000110000000000000 f!
b00000000000000000110000000000000 h!
1i!
b00000000000000000110000000000000 j!
0m!
#230000
b00000000000000000000000000001010 1
b00000000100001001010000000100011 G
b00000000000000000000000000001100 H
b00000000000000000000000000010000 I
b00000000000000000110010010110111 Z
b00000000000000000000000000001000 [
b00000000000000000000000000001100 \
1`
b1001 b
b00000000000000000110000000000000 c
b01001 i
b00000000000000000000000000000100 n
b00000000000000000000000000001000 o
b00 t
b01000 |
b00000000100001001010000000100011 "!
b00000000000000000000000000010100 #!
b00000000000000000000000000010000 $!
0&!
b01 '!
b0000 (!
0)!
1*!
b00 ,!
b001 -!
b00000000000000000000000000000000 .!
b01 1!
b10 4!
b00000000000000000000000000001010 8!
b0100011 9!
b010 :!
b01001 ?!
b01000 @!
1A!
1D!
b0000000010000100101000000 F!
b00000000100001001010000000000000 G!
b00000000000000000000000000001000 H!
b00000000000000000000000000000000 I!
b00000000000000000000000000000000 J!
b00000000000001001010000000001000 K!
b00000000000100 M!
b01100000000000 N!
b00000000000000000000000000001010 l!
1m!
#235000
b00000000100001001010000000100011 S!
b00000000000000000000000000001100 T!
b00000000000000000000000000010000 U!
b00000000000000000000000000000000 X!
0Y!
b01 Z!
b0000 [!
1]!
0_!
b00 a!
b00000 b!
b00000000000000000000000000000000 f!
0m!
#240000
b00000000000000000000000000001010 /
b00000000000001001010010110000011 G
b00000000000000000000000000010000 H
b00000000000000000000000000010100 I
b00000000100001001010000000100011 Z
b00000000000000000000000000001100 [
b00000000000000000000000000010000 \
0`
b01 a
b0000 b
1d
0f
b00 h
b00000 i
b00000000000000000000000000001010 l
b00000000000000000000000000001000 n
b00000000000000000000000000001100 o
1s
b1001 u
b00000000000000000110000000000000 v
b01001 |
b00000000000001001010010110000011 "!
b00000000000000000000000000011000 #!
b00000000000000000000000000010100 $!
1)!
0*!
1+!
b10 ,!
b000 -!
b10 1!
b00000000000000000110000000000000 3!
b00 4!
17!
b0000011 9!
b00000 @!
0A!
1C!
0D!
b0000000000000100101001011 F!
b00000000000001001010000000000000 G!
b00000000000000000000000000000000 H!
b00000000000000000000000000001011 I!
b00000000000000000000100000001010 J!
b00000000000001001010000000000000 K!
b00000000000101 M!
1O!
b00000000000000000000000000000000 l!
1m!
#245000
b00000000000001001010010110000011 S!
b00000000000000000000000000010000 T!
b00000000000000000000000000010100 U!
0]!
1^!
1_!
b10 a!
b01011 b!
0m!
#250000
b00000000000000000110000000000000 0
b00000000010101011000010110010011 G
b00000000000000000000000000010100 H
b00000000000000000000000000011000 I
b00000000000001001010010110000011 Z
b00000000000000000000000000010000 [
b00000000000000000000000000010100 \
0d
1e
1f
b10 h
b01011 i
b00000000000000000000000000000000 l
b00000000000000000000000000001100 n
b00000000000000000000000000010000 o
0s
b01 t
b0000 u
1w
0y
b00 {
b00000 |
b00000000010101011000010110010011 "!
b00000000000000000000000000011100 #!
b00000000000000000000000000011000 $!
0+!
b11 ,!
b00000000000000000000000000000101 .!
b01 1!
b00000000000000000000000000010000 3!
15!
16!
07!
b00000000000000000110000000000000 8!
b0010011 9!
b000 :!
b01011 ?!
b00101 @!
1A!
0C!
1E!
b0000000001010101100001011 F!
b00000000010101011000000000000000 G!
b00000000000000000000000000000101 H!
b00000000000001011000100000000100 K!
b00000000000110 M!
0O!
0R!
1m!
#255000
b00000000000000000000000000010011 S!
0^!
0_!
b11 a!
b00000 b!
0m!
#260000
b00000000000000000000000000011100 I
b00000000000000000000000000010011 Z
0e
0f
b11 h
b00000 i
b00000000000000000000000000010000 n
b00000000000000000000000000010100 o
0w
1x
1y
b10 {
b01011 |
b00000000000000000110011000110111 "!
b00000000000000000000000000001010 /!
b11 1!
b00000000000000000000000000001010 3!
05!
0A!
1C!
0E!
b00000000000000000000000000001010 P!
1R!
b00000000000000000000000000001010 h!
b00000000000000000000000000001010 j!
1m!
#265000
b00000000010101011000010110010011 S!
b00000000000000000000000000010100 T!
b00000000000000000000000000011100 U!
b00000000000000000000000000000101 X!
1_!
b01011 b!
b00000000000000000000000000000101 g!
b00000000000000000000000000001111 h!
b00000000000000000000000000000101 k!
b00000000000000000000000000000101 l!
0m!
#270000
b00000000000000000000000000001010 2
b00000000000000000110011000110111 G
b00000000000000000000000000011000 H
b00000000010101011000010110010011 Z
b00000000000000000000000000010100 [
b00000000000000000000000000011100 \
b00000000000000000000000000001111 c
1f
b01011 i
b00000000000000000000000000000101 l
0x
0y
b11 {
b00000 |
b00000000000000000000000000100000 #!
b00000000000000000000000000011100 $!
1&!
b00 '!
b1001 (!
b011 -!
b00000000000000000110000000000000 .!
b00 1!
b00000000000000000110000000000000 3!
06!
b0110111 9!
b110 :!
b00000 ?!
b00000 @!
0C!
b0000000000000000011001100 F!
b00000000000000000110000000000000 G!
b00000000000000000000000000000000 H!
b00000000000000000000000000001100 I!
b00000000000000000000000000001100 J!
b00000000000000000110000000000000 K!
b00000000000111 M!
b00000000000011 N!
b00000000000000000000000000000101 h!
b00000000000000000000000000000000 j!
1m!
#275000
b00000000000000000110011000110111 S!
b00000000000000000000000000011000 T!
b00000000000000000110000000000000 X!
1Y!
b00 Z!
b1001 [!
b01100 b!
b00000000000000000110000000000000 f!
b00000000000000000000000000000000 g!
b00000000000000000110000000000000 h!
b00000000000000000110000000000000 j!
b00000000000000000000000000000000 k!
b00000000000000000000000000000000 l!
0m!
#280000
b00000000000000000110000000000000 %
b00000000110001001010000000100011 G
b00000000000000000000000000011100 H
b00000000000000000000000000100000 I
b00000000000000000110011000110111 Z
b00000000000000000000000000011000 [
1`
b00 a
b1001 b
b00000000000000000110000000000000 c
b01100 i
b00000000000000000000000000000000 l
b00000000000000000000000000010100 n
b00000000000000000000000000011100 o
b00000000000000000000000000001111 v
1y
b01011 |
b00000000110001001010000000100011 "!
b00000000000000000000000000100100 #!
b00000000000000000000000000100000 $!
0&!
b01 '!
b0000 (!
0)!
1*!
b00 ,!
b001 -!
b00000000000000000000000000000000 .!
b00000000000000000000000000001111 3!
b10 4!
b0100011 9!
b010 :!
b01001 ?!
b01100 @!
1B!
b0000000011000100101000000 F!
b00000000110001001010000000000000 G!
b00000000000000000000000000001100 H!
b00000000000000000000000000000000 I!
b00000000000000000000000000000000 J!
b00000000000001001010000000001100 K!
b00000000001000 M!
b01100000000000 N!
b00000000000000000110000000000000 l!
1m!
#285000
b00000000110001001010000000100011 S!
b00000000000000000000000000011100 T!
b00000000000000000000000000100000 U!
b00000000000000000110000000000000 V!
b00000000000000000000000000000000 X!
0Y!
b01 Z!
b0000 [!
1]!
0_!
b00 a!
b00000 b!
0m!
#290000
b00000000000000000000000000001111 2
b00000000000001001010011000000011 G
b00000000000000000000000000100000 H
b00000000000000000000000000100100 I
b00000000110001001010000000100011 Z
b00000000000000000000000000011100 [
b00000000000000000000000000100000 \
b00000000000000000110000000000000 ]
0`
b01 a
b0000 b
1d
0f
b00 h
b00000 i
b00000000000000000110000000000000 l
b00000000000000000000000000011000 n
1s
b00 t
b1001 u
b00000000000000000110000000000000 v
b01100 |
b00000000000001001010011000000011 "!
b00000000000000000000000000101000 #!
b00000000000000000000000000100100 $!
1)!
0*!
1+!
b10 ,!
b000 -!
b00000000000000000110000000000000 3!
b00 4!
17!
b00000000000000000000000000001111 8!
b0000011 9!
b00000 @!
0B!
b0000000000000100101001100 F!
b00000000000001001010000000000000 G!
b00000000000000000000000000000000 H!
b00000000000000000000000000001100 I!
b00000000000000000000000000001100 J!
b00000000000001001010000000000000 K!
b00000000001001 M!
1O!
b00000000000000000000000000000000 l!
1m!
#295000
b00000000000001001010011000000011 S!
b00000000000000000000000000100000 T!
b00000000000000000000000000100100 U!
0]!
1^!
1_!
b10 a!
b01100 b!
0m!
#300000
b00000000000000000110000000000000 3
b00000000000001100010001110000011 G
b00000000000000000000000000100100 H
b00000000000000000000000000101000 I
b00000000000001001010011000000011 Z
b00000000000000000000000000100000 [
b00000000000000000000000000100100 \
0d
1e
1f
b10 h
b01100 i
b00000000000000000000000000000000 l
b00000000000000000000000000011100 n
b00000000000000000000000000100000 o
b00000000000000000110000000000000 p
0s
b01 t
b0000 u
1w
0y
b00 {
b00000 |
b00000000000001100010001110000011 "!
b00000000000000000000000000101100 #!
b00000000000000000000000000101000 $!
b01 1!
b00000000000000000000000000100000 3!
15!
16!
07!
b00000000000000000110000000000000 8!
b01100 ?!
1A!
1E!
b0000000000000110001000111 F!
b00000000000001100010000000000000 G!
b00000000000000000000000000000111 I!
b00000000000000000000100000000110 J!
b00000000000001100010000000000000 K!
b00000000001010 M!
0O!
0R!
1m!
#305000
b00000000000000000000000000010011 S!
b00000000000000000000000000000000 V!
0^!
0_!
b00000 b!
b00000000000000000000000000000000 f!
0m!
#310000
b00000000000000000000000000101100 I
b00000000000000000000000000010011 Z
b00000000000000000000000000000000 ]
0e
0f
b00000 i
b00000000000000000000000000100000 n
b00000000000000000000000000100100 o
0w
1x
1y
b10 {
b01100 |
b00000000100001100000011000010011 "!
b00000000000000000110000000000000 /!
b11 1!
b00000000000000000110000000000000 3!
05!
0A!
1C!
0E!
b00000000000000000110000000000000 P!
1R!
1m!
