tests/tb_OTTER/tb_OTTER.vcd
$version Generated by VerilatedVcd $end
$timescale 1ps $end
 $scope module $rootio $end
 $upscope $end
 $scope module tb_OTTER $end
  $var wire 1 g! CLK $end
  $var wire 1 h! RST $end
  $scope module UUT $end
   $var wire 1 g! CLK $end
   $var wire 1 h! RST $end
   $var wire 1 j! mem_err $end
   $scope module FE_DE $end
    $var wire 32 E IR [31:0] $end
    $var wire 32 F PC [31:0] $end
    $var wire 32 G NEXT_PC [31:0] $end
    $var wire 32 H RS1 [31:0] $end
    $var wire 32 I RS2 [31:0] $end
    $var wire 32 J IMM [31:0] $end
    $var wire 1 K SRC_A_SEL $end
    $var wire 2 L SRC_B_SEL [1:0] $end
    $var wire 4 M ALU_CTRL [3:0] $end
    $var wire 32 N ALU_RESULT [31:0] $end
    $var wire 1 O MEM_WRITE $end
    $var wire 1 P MEM_READ $end
    $var wire 1 Q REG_WRITE $end
    $var wire 32 R MEM_DATA [31:0] $end
    $var wire 2 S RF_MUX_SEL [1:0] $end
    $var wire 5 T DEST_REG [4:0] $end
    $var wire 32 U DEST_REG_DATA [31:0] $end
    $var wire 1 V ERR $end
    $var wire 32 W DIN2 [31:0] $end
   $upscope $end
   $scope module DE_EX $end
    $var wire 32 M! IR [31:0] $end
    $var wire 32 N! PC [31:0] $end
    $var wire 32 O! NEXT_PC [31:0] $end
    $var wire 32 P! RS1 [31:0] $end
    $var wire 32 Q! RS2 [31:0] $end
    $var wire 32 R! IMM [31:0] $end
    $var wire 1 S! SRC_A_SEL $end
    $var wire 2 T! SRC_B_SEL [1:0] $end
    $var wire 4 U! ALU_CTRL [3:0] $end
    $var wire 32 V! ALU_RESULT [31:0] $end
    $var wire 1 W! MEM_WRITE $end
    $var wire 1 X! MEM_READ $end
    $var wire 1 Y! REG_WRITE $end
    $var wire 32 Z! MEM_DATA [31:0] $end
    $var wire 2 [! RF_MUX_SEL [1:0] $end
    $var wire 5 \! DEST_REG [4:0] $end
    $var wire 32 ]! DEST_REG_DATA [31:0] $end
    $var wire 1 ^! ERR $end
    $var wire 32 _! DIN2 [31:0] $end
   $upscope $end
   $scope module EX_MEM $end
    $var wire 32 X IR [31:0] $end
    $var wire 32 Y PC [31:0] $end
    $var wire 32 Z NEXT_PC [31:0] $end
    $var wire 32 [ RS1 [31:0] $end
    $var wire 32 \ RS2 [31:0] $end
    $var wire 32 ] IMM [31:0] $end
    $var wire 1 ^ SRC_A_SEL $end
    $var wire 2 _ SRC_B_SEL [1:0] $end
    $var wire 4 ` ALU_CTRL [3:0] $end
    $var wire 32 a ALU_RESULT [31:0] $end
    $var wire 1 b MEM_WRITE $end
    $var wire 1 c MEM_READ $end
    $var wire 1 d REG_WRITE $end
    $var wire 32 e MEM_DATA [31:0] $end
    $var wire 2 f RF_MUX_SEL [1:0] $end
    $var wire 5 g DEST_REG [4:0] $end
    $var wire 32 h DEST_REG_DATA [31:0] $end
    $var wire 1 i ERR $end
    $var wire 32 j DIN2 [31:0] $end
   $upscope $end
   $scope module MEM_WB $end
    $var wire 32 k IR [31:0] $end
    $var wire 32 l PC [31:0] $end
    $var wire 32 m NEXT_PC [31:0] $end
    $var wire 32 n RS1 [31:0] $end
    $var wire 32 o RS2 [31:0] $end
    $var wire 32 p IMM [31:0] $end
    $var wire 1 q SRC_A_SEL $end
    $var wire 2 r SRC_B_SEL [1:0] $end
    $var wire 4 s ALU_CTRL [3:0] $end
    $var wire 32 t ALU_RESULT [31:0] $end
    $var wire 1 u MEM_WRITE $end
    $var wire 1 v MEM_READ $end
    $var wire 1 w REG_WRITE $end
    $var wire 32 x MEM_DATA [31:0] $end
    $var wire 2 y RF_MUX_SEL [1:0] $end
    $var wire 5 z DEST_REG [4:0] $end
    $var wire 32 { DEST_REG_DATA [31:0] $end
    $var wire 1 | ERR $end
    $var wire 32 } DIN2 [31:0] $end
   $upscope $end
   $var wire 32 ~ ir [31:0] $end
   $var wire 32 !! pc_in [31:0] $end
   $var wire 32 "! pc_out [31:0] $end
   $var wire 32 !! nextpc [31:0] $end
   $var wire 32 k! u_type [31:0] $end
   $var wire 32 l! i_type [31:0] $end
   $var wire 32 m! s_type [31:0] $end
   $var wire 32 n! b_type [31:0] $end
   $var wire 32 o! j_type [31:0] $end
   $var wire 32 # rs1 [31:0] $end
   $var wire 32 $ rs2 [31:0] $end
   $var wire 3 p! pc_sel [2:0] $end
   $var wire 1 #! src_a_sel $end
   $var wire 2 $! src_b_sel [1:0] $end
   $var wire 4 %! alu_ctrl [3:0] $end
   $var wire 1 &! regwrite $end
   $var wire 1 '! memwrite $end
   $var wire 1 (! memread $end
   $var wire 2 )! rf_sel [1:0] $end
   $var wire 3 *! imm_sel [2:0] $end
   $var wire 32 +! imm [31:0] $end
   $var wire 32 `! src_a_out [31:0] $end
   $var wire 32 a! src_b_out [31:0] $end
   $var wire 32 b! alu_result [31:0] $end
   $var wire 32 ,! memout [31:0] $end
   $var wire 1 -! memerr $end
   $var wire 1 c! zero $end
   $var wire 32 d! fwd_a_out [31:0] $end
   $var wire 32 e! fwd_b_out [31:0] $end
   $var wire 2 .! fwd_a_sel [1:0] $end
   $var wire 2 /! fwd_b_sel [1:0] $end
   $var wire 2 y rf_mux_sel [1:0] $end
   $var wire 32 m rf_nextPC [31:0] $end
   $var wire 32 t rf_alu_result [31:0] $end
   $var wire 32 0! rf_rd [31:0] $end
   $var wire 2 1! sw_sel [1:0] $end
   $var wire 32 f! din2 [31:0] $end
   $var wire 1 2! stall $end
   $var wire 1 3! flush $end
   $var wire 1 4! stall_mem_read $end
   $var wire 32 5! reg_result [31:0] $end
   $scope module FWD_A_MUX $end
    $var wire 2 .! SEL [1:0] $end
    $var wire 32 `! D0 [31:0] $end
    $var wire 32 a D1 [31:0] $end
    $var wire 32 t D2 [31:0] $end
    $var wire 32 ,! D3 [31:0] $end
    $var wire 32 d! DOUT [31:0] $end
   $upscope $end
   $scope module FWD_B_MUX $end
    $var wire 2 /! SEL [1:0] $end
    $var wire 32 a! D0 [31:0] $end
    $var wire 32 a D1 [31:0] $end
    $var wire 32 t D2 [31:0] $end
    $var wire 32 ,! D3 [31:0] $end
    $var wire 32 e! DOUT [31:0] $end
   $upscope $end
   $scope module OTTER_ALU $end
    $var wire 32 d! SRC_A [31:0] $end
    $var wire 32 e! SRC_B [31:0] $end
    $var wire 4 U! ALU_CTRL [3:0] $end
    $var wire 32 b! RESULT [31:0] $end
    $var wire 1 c! ZERO $end
   $upscope $end
   $scope module OTTER_CU $end
    $var wire 7 6! OPCODE [6:0] $end
    $var wire 3 7! FUNC3 [2:0] $end
    $var wire 1 8! FUNC7 $end
    $var wire 1 &! REG_WRITE $end
    $var wire 1 '! MEM_WRITE $end
    $var wire 1 (! MEM_READ2 $end
    $var wire 2 )! RF_SEL [1:0] $end
    $var wire 4 %! ALU_FUN [3:0] $end
    $var wire 1 #! ALU_SRCA $end
    $var wire 2 $! ALU_SRCB [1:0] $end
    $var wire 3 p! PC_SRC [2:0] $end
    $var wire 3 *! IMM_SEL [2:0] $end
   $upscope $end
   $scope module OTTER_HU $end
    $var wire 32 E IR [31:0] $end
    $var wire 5 g RD_M [4:0] $end
    $var wire 5 z RD_W [4:0] $end
    $var wire 5 9! RS1 [4:0] $end
    $var wire 5 :! RS2 [4:0] $end
    $var wire 1 4! MEM_READ_EX $end
    $var wire 1 v MEM_READ_WB $end
    $var wire 1 b MEM_WRITE_EX $end
    $var wire 2 .! FWD_A_SEL [1:0] $end
    $var wire 2 /! FWD_B_SEL [1:0] $end
    $var wire 2 1! SW_SEL [1:0] $end
    $var wire 1 2! STALL $end
    $var wire 1 3! FLUSH $end
    $var wire 1 ;! MEM_FWD1 $end
    $var wire 1 <! MEM_FWD2 $end
    $var wire 1 =! WB_FWD1 $end
    $var wire 1 >! WB_FWD2 $end
    $var wire 1 ?! load_use $end
   $upscope $end
   $scope module OTTER_IG $end
    $var wire 25 @! IR [24:0] $end
    $var wire 3 *! IMM_SEL [2:0] $end
    $var wire 32 +! IMM [31:0] $end
    $var wire 32 A! U_TYPE [31:0] $end
    $var wire 32 B! I_TYPE [31:0] $end
    $var wire 32 C! S_TYPE [31:0] $end
    $var wire 32 D! B_TYPE [31:0] $end
    $var wire 32 E! J_TYPE [31:0] $end
   $upscope $end
   $scope module OTTER_MEM $end
    $var wire 32 q! ACTUAL_WIDTH [31:0] $end
    $var wire 32 "! MEM_ADDR1 [31:0] $end
    $var wire 32 a MEM_ADDR2 [31:0] $end
    $var wire 1 g! MEM_CLK $end
    $var wire 32 j MEM_DIN2 [31:0] $end
    $var wire 1 b MEM_WRITE2 $end
    $var wire 1 r! MEM_READ1 $end
    $var wire 1 c MEM_READ2 $end
    $var wire 32 s! IO_IN [31:0] $end
    $var wire 1 -! ERR $end
    $var wire 32 ~ MEM_DOUT1 [31:0] $end
    $var wire 32 ,! MEM_DOUT2 [31:0] $end
    $var wire 1 F! IO_WR $end
    $var wire 14 G! memAddr1 [13:0] $end
    $var wire 14 H! memAddr2 [13:0] $end
    $var wire 1 I! memWrite2 $end
    $var wire 32 J! memOut2 [31:0] $end
    $var wire 32 K! ioIn_buffer [31:0] $end
   $upscope $end
   $scope module OTTER_PC $end
    $var wire 1 g! CLK $end
    $var wire 1 h! RST $end
    $var wire 1 L! PC_EN $end
    $var wire 32 !! PC_IN [31:0] $end
    $var wire 32 "! PC_OUT [31:0] $end
   $upscope $end
   $scope module OTTER_RF $end
    $var wire 1 g! CLK $end
    $var wire 5 9! REG_ADDR1 [4:0] $end
    $var wire 5 :! REG_ADDR2 [4:0] $end
    $var wire 1 w WRITE_EN $end
    $var wire 5 z WRITE_ADDR [4:0] $end
    $var wire 32 0! WRITE_DATA [31:0] $end
    $var wire 32 # REG_1_DATA [31:0] $end
    $var wire 32 $ REG_2_DATA [31:0] $end
    $var wire 32 % register[0] [31:0] $end
    $var wire 32 & register[1] [31:0] $end
    $var wire 32 ' register[2] [31:0] $end
    $var wire 32 ( register[3] [31:0] $end
    $var wire 32 ) register[4] [31:0] $end
    $var wire 32 * register[5] [31:0] $end
    $var wire 32 + register[6] [31:0] $end
    $var wire 32 , register[7] [31:0] $end
    $var wire 32 - register[8] [31:0] $end
    $var wire 32 . register[9] [31:0] $end
    $var wire 32 / register[10] [31:0] $end
    $var wire 32 0 register[11] [31:0] $end
    $var wire 32 1 register[12] [31:0] $end
    $var wire 32 2 register[13] [31:0] $end
    $var wire 32 3 register[14] [31:0] $end
    $var wire 32 4 register[15] [31:0] $end
    $var wire 32 5 register[16] [31:0] $end
    $var wire 32 6 register[17] [31:0] $end
    $var wire 32 7 register[18] [31:0] $end
    $var wire 32 8 register[19] [31:0] $end
    $var wire 32 9 register[20] [31:0] $end
    $var wire 32 : register[21] [31:0] $end
    $var wire 32 ; register[22] [31:0] $end
    $var wire 32 < register[23] [31:0] $end
    $var wire 32 = register[24] [31:0] $end
    $var wire 32 > register[25] [31:0] $end
    $var wire 32 ? register[26] [31:0] $end
    $var wire 32 @ register[27] [31:0] $end
    $var wire 32 A register[28] [31:0] $end
    $var wire 32 B register[29] [31:0] $end
    $var wire 32 C register[30] [31:0] $end
    $var wire 32 D register[31] [31:0] $end
    $scope module unnamedblk1 $end
     $var wire 32 i! i [31:0] $end
    $upscope $end
   $upscope $end
   $scope module PC_MUX $end
    $var wire 2 t! SEL [1:0] $end
    $var wire 32 !! D0 [31:0] $end
    $var wire 32 u! D1 [31:0] $end
    $var wire 32 u! D2 [31:0] $end
    $var wire 32 u! D3 [31:0] $end
    $var wire 32 !! DOUT [31:0] $end
   $upscope $end
   $scope module RF_MUX $end
    $var wire 2 y SEL [1:0] $end
    $var wire 32 m D0 [31:0] $end
    $var wire 32 u! D1 [31:0] $end
    $var wire 32 ,! D2 [31:0] $end
    $var wire 32 t D3 [31:0] $end
    $var wire 32 0! DOUT [31:0] $end
   $upscope $end
   $scope module SRC_A_MUX $end
    $var wire 1 S! SEL $end
    $var wire 32 P! D0 [31:0] $end
    $var wire 32 R! D1 [31:0] $end
    $var wire 32 `! DOUT [31:0] $end
   $upscope $end
   $scope module SRC_B_MUX $end
    $var wire 2 T! SEL [1:0] $end
    $var wire 32 Q! D0 [31:0] $end
    $var wire 32 R! D1 [31:0] $end
    $var wire 32 N! D2 [31:0] $end
    $var wire 32 u! D3 [31:0] $end
    $var wire 32 a! DOUT [31:0] $end
   $upscope $end
   $scope module SW_MUX $end
    $var wire 2 1! SEL [1:0] $end
    $var wire 32 a! D0 [31:0] $end
    $var wire 32 e! D1 [31:0] $end
    $var wire 32 5! D2 [31:0] $end
    $var wire 32 u! D3 [31:0] $end
    $var wire 32 f! DOUT [31:0] $end
   $upscope $end
  $upscope $end
 $upscope $end
$enddefinitions $end


#0
b00000000000000000000000000000000 #
b00000000000000000000000000000000 $
b00000000000000000000000000000000 %
b00000000000000000000000000000000 &
b00000000000000000000000000000000 '
b00000000000000000000000000000000 (
b00000000000000000000000000000000 )
b00000000000000000000000000000000 *
b00000000000000000000000000000000 +
b00000000000000000000000000000000 ,
b00000000000000000000000000000000 -
b00000000000000000000000000000000 .
b00000000000000000000000000000000 /
b00000000000000000000000000000000 0
b00000000000000000000000000000000 1
b00000000000000000000000000000000 2
b00000000000000000000000000000000 3
b00000000000000000000000000000000 4
b00000000000000000000000000000000 5
b00000000000000000000000000000000 6
b00000000000000000000000000000000 7
b00000000000000000000000000000000 8
b00000000000000000000000000000000 9
b00000000000000000000000000000000 :
b00000000000000000000000000000000 ;
b00000000000000000000000000000000 <
b00000000000000000000000000000000 =
b00000000000000000000000000000000 >
b00000000000000000000000000000000 ?
b00000000000000000000000000000000 @
b00000000000000000000000000000000 A
b00000000000000000000000000000000 B
b00000000000000000000000000000000 C
b00000000000000000000000000000000 D
b00000000000000000000000000000000 E
b00000000000000000000000000000000 F
b00000000000000000000000000000000 G
b00000000000000000000000000000000 H
b00000000000000000000000000000000 I
b00000000000000000000000000000000 J
0K
b00 L
b0000 M
b00000000000000000000000000000000 N
0O
0P
0Q
b00000000000000000000000000000000 R
b00 S
b00000 T
b00000000000000000000000000000000 U
0V
b00000000000000000000000000000000 W
b00000000000000000000000000000000 X
b00000000000000000000000000000000 Y
b00000000000000000000000000000000 Z
b00000000000000000000000000000000 [
b00000000000000000000000000000000 \
b00000000000000000000000000000000 ]
0^
b00 _
b0000 `
b00000000000000000000000000000000 a
0b
0c
0d
b00000000000000000000000000000000 e
b00 f
b00000 g
b00000000000000000000000000000000 h
0i
b00000000000000000000000000000000 j
b00000000000000000000000000000000 k
b00000000000000000000000000000000 l
b00000000000000000000000000000000 m
b00000000000000000000000000000000 n
b00000000000000000000000000000000 o
b00000000000000000000000000000000 p
0q
b00 r
b0000 s
b00000000000000000000000000000000 t
0u
0v
0w
b00000000000000000000000000000000 x
b00 y
b00000 z
b00000000000000000000000000000000 {
0|
b00000000000000000000000000000000 }
b00000000000000000000000000000000 ~
b00000000000000000000000000000100 !!
b00000000000000000000000000000000 "!
0#!
b00 $!
b0000 %!
0&!
0'!
0(!
b00 )!
b000 *!
b00000000000000000000000000000000 +!
b00000000000000000000000000000000 ,!
0-!
b00 .!
b00 /!
b00000000000000000000000000000000 0!
b00 1!
02!
03!
04!
b00000000000000000000000000000000 5!
b0000000 6!
b000 7!
08!
b00000 9!
b00000 :!
0;!
0<!
0=!
0>!
0?!
b0000000000000000000000000 @!
b00000000000000000000000000000000 A!
b00000000000000000000000000000000 B!
b00000000000000000000000000000000 C!
b00000000000000000000000000000000 D!
b00000000000000000000000000000000 E!
0F!
b00000000000000 G!
b00000000000000 H!
0I!
b00000000000000000000000000000000 J!
b00000000000000000000000000000000 K!
1L!
b00000000000000000000000000000000 M!
b00000000000000000000000000000000 N!
b00000000000000000000000000000000 O!
b00000000000000000000000000000000 P!
b00000000000000000000000000000000 Q!
b00000000000000000000000000000000 R!
0S!
b00 T!
b0000 U!
b00000000000000000000000000000000 V!
0W!
0X!
0Y!
b00000000000000000000000000000000 Z!
b00 [!
b00000 \!
b00000000000000000000000000000000 ]!
0^!
b00000000000000000000000000000000 _!
b00000000000000000000000000000000 `!
b00000000000000000000000000000000 a!
b00000000000000000000000000000000 b!
0c!
b00000000000000000000000000000000 d!
b00000000000000000000000000000000 e!
b00000000000000000000000000000000 f!
0g!
1h!
b00000000000000000000000000100000 i!
0j!
b00000000000000000000000000000000 k!
b00000000000000000000000000000000 l!
b00000000000000000000000000000000 m!
b00000000000000000000000000000000 n!
b00000000000000000000000000000000 o!
b000 p!
b00000000000000000000000000001110 q!
1r!
b00000000000000000000000000000000 s!
b00 t!
b00000000000000000000000000000000 u!
#5000
#10000
b00000000101001010000010100010011 ~
1g!
#15000
0g!
#20000
1g!
#25000
0g!
#30000
1g!
#35000
0g!
#40000
1g!
#45000
0g!
#50000
1g!
#55000
0g!
#60000
1g!
#65000
0g!
#70000
1g!
#75000
0g!
#80000
1g!
#85000
0g!
#90000
1g!
#95000
0g!
#100000
1g!
#105000
0g!
#110000
1g!
#115000
0g!
#120000
1g!
#125000
0g!
#130000
1g!
#135000
0g!
#140000
1g!
#145000
0g!
#150000
1g!
#155000
0g!
#160000
1g!
#165000
0g!
#170000
1g!
#175000
0g!
#180000
1g!
#185000
0g!
#190000
1g!
#195000
0g!
#200000
b00000000101001010000010100010011 E
b00000000000000000000000000000100 G
b00000000000000000000000000001000 !!
b00000000000000000000000000000100 "!
b01 $!
1&!
b11 )!
b00000000000000000000000000001010 +!
b0010011 6!
b01010 9!
b01010 :!
b0000000010100101000001010 @!
b00000000101001010000000000000000 A!
b00000000000000000000000000001010 B!
b00000000000000000000000000001010 C!
b00000000000000000000000000001010 D!
b00000000000001010000000000001010 E!
b00000000000001 G!
1g!
0h!
#205000
b00000000101001010000010100010011 M!
b00000000000000000000000000000100 O!
b00000000000000000000000000001010 R!
b01 T!
1Y!
b11 [!
b01010 \!
b00000000000000000000000000001010 a!
b00000000000000000000000000001010 b!
1c!
b00000000000000000000000000001010 e!
b00000000000000000000000000001010 f!
0g!
#210000
b00000000101001000000010000110011 E
b00000000000000000000000000000100 F
b00000000000000000000000000001000 G
b00000000101001010000010100010011 X
b00000000000000000000000000000100 Z
b01 _
b00000000000000000000000000001010 a
1d
b11 f
b01010 g
b00000000000000000000000000001010 j
b00000000101001000000010000110011 ~
b00000000000000000000000000001100 !!
b00000000000000000000000000001000 "!
b00 $!
1-!
b01 /!
b0110011 6!
b01000 9!
1<!
b0000000010100100000001000 @!
b00000000101001000000000000000000 A!
b00000000000000000000000000001000 C!
b00000000000000000000000000001000 D!
b00000000000001000000000000001010 E!
b00000000000010 G!
b00000000000010 H!
1g!
#215000
b00000000101001000000010000110011 M!
b00000000000000000000000000000100 N!
b00000000000000000000000000001000 O!
b00 T!
b01000 \!
b00000000000000000000000000000000 a!
b00000000000000000000000000000000 f!
0g!
#220000
b00000000000000000110010010110111 E
b00000000000000000000000000001000 F
b00000000000000000000000000001100 G
b00000000101001000000010000110011 X
b00000000000000000000000000000100 Y
b00000000000000000000000000001000 Z
b00 _
b01000 g
b00000000000000000000000000000000 j
b00000000000000000000000000000100 m
b01 r
b00000000000000000000000000001010 t
1w
b11 y
b01010 z
1|
b00000000000000000110010010110111 ~
b00000000000000000000000000010000 !!
b00000000000000000000000000001100 "!
1#!
b1001 %!
b011 *!
b00000000000000000110000000000000 +!
b00 /!
b00000000000000000000000000001010 0!
b0110111 6!
b110 7!
b00000 9!
b00000 :!
0<!
b0000000000000000011001001 @!
b00000000000000000110000000000000 A!
b00000000000000000000000000000000 B!
b00000000000000000000000000001001 C!
b00000000000000000000100000001000 D!
b00000000000000000110000000000000 E!
b00000000000011 G!
b00000000000000000000000000000000 b!
0c!
b00000000000000000000000000000000 e!
1g!
#225000
b00000000000000000110010010110111 M!
b00000000000000000000000000001000 N!
b00000000000000000000000000001100 O!
b00000000000000000110000000000000 R!
1S!
b1001 U!
b01001 \!
b00000000000000000110000000000000 `!
b00000000000000000110000000000000 b!
1c!
b00000000000000000110000000000000 d!
0g!
#230000
b00000000000000000000000000001010 /
b00000000100001001010000000100011 E
b00000000000000000000000000001100 F
b00000000000000000000000000010000 G
b00000000000000000110010010110111 X
b00000000000000000000000000001000 Y
b00000000000000000000000000001100 Z
1^
b1001 `
b00000000000000000110000000000000 a
b01001 g
b00000000000000000000000000000100 l
b00000000000000000000000000001000 m
b00 r
b01000 z
b00000000100001001010000000100011 ~
b00000000000000000000000000010100 !!
b00000000000000000000000000010000 "!
0#!
b01 $!
b0000 %!
0&!
1'!
b00 )!
b001 *!
b00000000000000000000000000000000 +!
b01 .!
b10 1!
b00000000000000000000000000001010 5!
b0100011 6!
b010 7!
b01001 9!
b01000 :!
1;!
1>!
b0000000010000100101000000 @!
b00000000100001001010000000000000 A!
b00000000000000000000000000001000 B!
b00000000000000000000000000000000 C!
b00000000000000000000000000000000 D!
b00000000000001001010000000001000 E!
b00000000000100 G!
b01100000000000 H!
b00000000000000000000000000001010 f!
1g!
#235000
b00000000100001001010000000100011 M!
b00000000000000000000000000001100 N!
b00000000000000000000000000010000 O!
b00000000000000000000000000000000 R!
0S!
b01 T!
b0000 U!
1W!
0Y!
b00 [!
b00000 \!
b00000000000000000000000000000000 `!
0g!
#240000
b00000000000000000000000000001010 -
b00000000000001001010010110000011 E
b00000000000000000000000000010000 F
b00000000000000000000000000010100 G
b00000000100001001010000000100011 X
b00000000000000000000000000001100 Y
b00000000000000000000000000010000 Z
0^
b01 _
b0000 `
1b
0d
b00 f
b00000 g
b00000000000000000000000000001010 j
b00000000000000000000000000001000 l
b00000000000000000000000000001100 m
1q
b1001 s
b00000000000000000110000000000000 t
b01001 z
b00000000000001001010010110000011 ~
b00000000000000000000000000011000 !!
b00000000000000000000000000010100 "!
1&!
0'!
1(!
b10 )!
b000 *!
b10 .!
b00000000000000000110000000000000 0!
b00 1!
b0000011 6!
b00000 :!
0;!
1=!
0>!
b0000000000000100101001011 @!
b00000000000001001010000000000000 A!
b00000000000000000000000000000000 B!
b00000000000000000000000000001011 C!
b00000000000000000000100000001010 D!
b00000000000001001010000000000000 E!
b00000000000101 G!
1I!
b00000000000000000000000000000000 f!
1g!
#245000
b00000000000001001010010110000011 M!
b00000000000000000000000000010000 N!
b00000000000000000000000000010100 O!
0W!
1X!
1Y!
b10 [!
b01011 \!
0g!
#250000
b00000000000000000110000000000000 .
b00000000010101011000010110010011 E
b00000000000000000000000000010100 F
b00000000000000000000000000011000 G
b00000000000001001010010110000011 X
b00000000000000000000000000010000 Y
b00000000000000000000000000010100 Z
0b
1c
1d
b10 f
b01011 g
b00000000000000000000000000000000 j
b00000000000000000000000000001100 l
b00000000000000000000000000010000 m
0q
b01 r
b0000 s
1u
0w
b00 y
b00000 z
b00000000010101011000010110010011 ~
b00000000000000000000000000011100 !!
b00000000000000000000000000011000 "!
0(!
b11 )!
b00000000000000000000000000000101 +!
b01 .!
b00000000000000000000000000010000 0!
12!
14!
b00000000000000000110000000000000 5!
b0010011 6!
b000 7!
b01011 9!
b00101 :!
1;!
0=!
1?!
b0000000001010101100001011 @!
b00000000010101011000000000000000 A!
b00000000000000000000000000000101 B!
b00000000000001011000100000000100 E!
b00000000000110 G!
0I!
0L!
1g!
#255000
b00000000000000000000000000010011 M!
0X!
0Y!
b11 [!
b00000 \!
0g!
#260000
b00000000000000000000000000011100 G
b00000000000000000000000000010011 X
0c
0d
b11 f
b00000 g
b00000000000000000000000000010000 l
b00000000000000000000000000010100 m
0u
1v
1w
b10 y
b01011 z
b00000000000000000000000000000000 ~
b00000000000000000000000000001010 ,!
b11 .!
b00000000000000000000000000001010 0!
02!
0;!
1=!
0?!
b00000000000000000000000000001010 J!
1L!
b00000000000000000000000000001010 b!
b00000000000000000000000000001010 d!
1g!
#265000
b00000000010101011000010110010011 M!
b00000000000000000000000000010100 N!
b00000000000000000000000000011100 O!
b00000000000000000000000000000101 R!
1Y!
b01011 \!
b00000000000000000000000000000101 a!
b00000000000000000000000000001111 b!
b00000000000000000000000000000101 e!
b00000000000000000000000000000101 f!
0g!
#270000
b00000000000000000000000000001010 0
b00000000000000000000000000000000 E
b00000000000000000000000000011000 F
b00000000010101011000010110010011 X
b00000000000000000000000000010100 Y
b00000000000000000000000000011100 Z
b00000000000000000000000000001111 a
1d
b01011 g
b00000000000000000000000000000101 j
0v
0w
b11 y
b00000 z
b00000000000000000000000000100000 !!
b00000000000000000000000000011100 "!
b00 $!
0&!
b00 )!
b00000000000000000000000000000000 +!
b00 .!
b00000000000000000110000000000000 0!
04!
b0000000 6!
b00000 9!
b00000 :!
0=!
b0000000000000000000000000 @!
b00000000000000000000000000000000 A!
b00000000000000000000000000000000 B!
b00000000000000000000000000000000 C!
b00000000000000000000000000000000 D!
b00000000000000000000000000000000 E!
b00000000000111 G!
b00000000000011 H!
b00000000000000000000000000000101 b!
b00000000000000000000000000000000 d!
1g!
#275000
b00000000000000000000000000000000 M!
b00000000000000000000000000011000 N!
b00000000000000000000000000000000 R!
b00 T!
0Y!
b00 [!
b00000 \!
b00000000000000000000000000000000 a!
b00000000000000000000000000000000 b!
0c!
b00000000000000000000000000000000 e!
b00000000000000000000000000000000 f!
0g!
#280000
b00000000000000000000000000011100 F
b00000000000000000000000000100000 G
b00000000000000000000000000000000 X
b00000000000000000000000000011000 Y
b00 _
b00000000000000000000000000000000 a
0d
b00 f
b00000 g
b00000000000000000000000000000000 j
b00000000000000000000000000010100 l
b00000000000000000000000000011100 m
b00000000000000000000000000001111 t
1w
b01011 z
b00000000000000000000000000100100 !!
b00000000000000000000000000100000 "!
0-!
b00000000000000000000000000001111 0!
b00000000001000 G!
b00000000000000 H!
1g!
#285000
b00000000000000000000000000011100 N!
b00000000000000000000000000100000 O!
0g!
#290000
b00000000000000000000000000001111 0
b00000000000000000000000000100000 F
b00000000000000000000000000100100 G
b00000000000000000000000000011100 Y
b00000000000000000000000000100000 Z
b00000000000000000000000000011000 l
b00 r
b00000000000000000000000000000000 t
0w
b00 y
b00000 z
0|
b00000000000000000000000000101000 !!
b00000000000000000000000000100100 "!
b00000000000000000000000000011100 0!
b00000000000000000000000000001111 5!
b00000000001001 G!
1g!
#295000
b00000000000000000000000000100000 N!
b00000000000000000000000000100100 O!
0g!
#300000
b00000000000000000000000000100100 F
b00000000000000000000000000101000 G
b00000000000000000000000000100000 Y
b00000000000000000000000000100100 Z
b00000000000000000000000000011100 l
b00000000000000000000000000100000 m
b00000000000000000000000000101100 !!
b00000000000000000000000000101000 "!
b00000000000000000000000000100000 0!
b00000000000000000000000000000000 5!
b00000000001010 G!
1g!
#305000
b00000000000000000000000000100100 N!
b00000000000000000000000000101000 O!
0g!
#310000
b00000000000000000000000000101000 F
b00000000000000000000000000101100 G
b00000000000000000000000000100100 Y
b00000000000000000000000000101000 Z
b00000000000000000000000000100000 l
b00000000000000000000000000100100 m
b00000000000000000000000000110000 !!
b00000000000000000000000000101100 "!
b00000000000000000000000000100100 0!
b00000000001011 G!
1g!
#315000
b00000000000000000000000000101000 N!
b00000000000000000000000000101100 O!
0g!
#320000
b00000000000000000000000000101100 F
b00000000000000000000000000110000 G
b00000000000000000000000000101000 Y
b00000000000000000000000000101100 Z
b00000000000000000000000000100100 l
b00000000000000000000000000101000 m
b00000000000000000000000000110100 !!
b00000000000000000000000000110000 "!
b00000000000000000000000000101000 0!
b00000000001100 G!
1g!
#325000
b00000000000000000000000000101100 N!
b00000000000000000000000000110000 O!
0g!
#330000
b00000000000000000000000000110000 F
b00000000000000000000000000110100 G
b00000000000000000000000000101100 Y
b00000000000000000000000000110000 Z
b00000000000000000000000000101000 l
b00000000000000000000000000101100 m
b00000000000000000000000000111000 !!
b00000000000000000000000000110100 "!
b00000000000000000000000000101100 0!
b00000000001101 G!
1g!
#335000
b00000000000000000000000000110000 N!
b00000000000000000000000000110100 O!
0g!
#340000
b00000000000000000000000000110100 F
b00000000000000000000000000111000 G
b00000000000000000000000000110000 Y
b00000000000000000000000000110100 Z
b00000000000000000000000000101100 l
b00000000000000000000000000110000 m
b00000000000000000000000000111100 !!
b00000000000000000000000000111000 "!
b00000000000000000000000000110000 0!
b00000000001110 G!
1g!
#345000
b00000000000000000000000000110100 N!
b00000000000000000000000000111000 O!
0g!
#350000
b00000000000000000000000000111000 F
b00000000000000000000000000111100 G
b00000000000000000000000000110100 Y
b00000000000000000000000000111000 Z
b00000000000000000000000000110000 l
b00000000000000000000000000110100 m
b00000000000000000000000001000000 !!
b00000000000000000000000000111100 "!
b00000000000000000000000000110100 0!
b00000000001111 G!
1g!
#355000
b00000000000000000000000000111000 N!
b00000000000000000000000000111100 O!
0g!
#360000
b00000000000000000000000000111100 F
b00000000000000000000000001000000 G
b00000000000000000000000000111000 Y
b00000000000000000000000000111100 Z
b00000000000000000000000000110100 l
b00000000000000000000000000111000 m
b00000000000000000000000001000100 !!
b00000000000000000000000001000000 "!
b00000000000000000000000000111000 0!
b00000000010000 G!
1g!
#365000
b00000000000000000000000000111100 N!
b00000000000000000000000001000000 O!
0g!
#370000
b00000000000000000000000001000000 F
b00000000000000000000000001000100 G
b00000000000000000000000000111100 Y
b00000000000000000000000001000000 Z
b00000000000000000000000000111000 l
b00000000000000000000000000111100 m
b00000000000000000000000001001000 !!
b00000000000000000000000001000100 "!
b00000000000000000000000000111100 0!
b00000000010001 G!
1g!
#375000
b00000000000000000000000001000000 N!
b00000000000000000000000001000100 O!
0g!
#380000
b00000000000000000000000001000100 F
b00000000000000000000000001001000 G
b00000000000000000000000001000000 Y
b00000000000000000000000001000100 Z
b00000000000000000000000000111100 l
b00000000000000000000000001000000 m
b00000000000000000000000001001100 !!
b00000000000000000000000001001000 "!
b00000000000000000000000001000000 0!
b00000000010010 G!
1g!
