tests/tb_OTTER/tb_OTTER.vcd
$version Generated by VerilatedVcd $end
$timescale 1ps $end
 $scope module $rootio $end
 $upscope $end
 $scope module tb_OTTER $end
  $var wire 1 S! CLK $end
  $var wire 1 T! RST $end
  $scope module UUT $end
   $var wire 1 S! CLK $end
   $var wire 1 T! RST $end
   $var wire 1 V! mem_err $end
   $scope module FE_DE $end
    $var wire 32 E IR [31:0] $end
    $var wire 32 F PC [31:0] $end
    $var wire 32 G NEXT_PC [31:0] $end
    $var wire 32 H RS1 [31:0] $end
    $var wire 32 I RS2 [31:0] $end
    $var wire 32 J IMM [31:0] $end
    $var wire 1 K SRC_A_SEL $end
    $var wire 2 L SRC_B_SEL [1:0] $end
    $var wire 4 M ALU_CTRL [3:0] $end
    $var wire 32 N ALU_RESULT [31:0] $end
    $var wire 1 O MEM_WRITE $end
    $var wire 1 P MEM_READ $end
    $var wire 1 Q REG_WRITE $end
    $var wire 32 R MEM_DATA [31:0] $end
    $var wire 2 S RF_MUX_SEL [1:0] $end
    $var wire 5 T DEST_REG [4:0] $end
    $var wire 32 U DEST_REG_DATA [31:0] $end
    $var wire 1 V ERR $end
   $upscope $end
   $scope module DE_EX $end
    $var wire 32 W IR [31:0] $end
    $var wire 32 X PC [31:0] $end
    $var wire 32 Y NEXT_PC [31:0] $end
    $var wire 32 Z RS1 [31:0] $end
    $var wire 32 [ RS2 [31:0] $end
    $var wire 32 \ IMM [31:0] $end
    $var wire 1 ] SRC_A_SEL $end
    $var wire 2 ^ SRC_B_SEL [1:0] $end
    $var wire 4 _ ALU_CTRL [3:0] $end
    $var wire 32 ` ALU_RESULT [31:0] $end
    $var wire 1 a MEM_WRITE $end
    $var wire 1 b MEM_READ $end
    $var wire 1 c REG_WRITE $end
    $var wire 32 d MEM_DATA [31:0] $end
    $var wire 2 e RF_MUX_SEL [1:0] $end
    $var wire 5 f DEST_REG [4:0] $end
    $var wire 32 g DEST_REG_DATA [31:0] $end
    $var wire 1 h ERR $end
   $upscope $end
   $scope module EX_MEM $end
    $var wire 32 i IR [31:0] $end
    $var wire 32 j PC [31:0] $end
    $var wire 32 k NEXT_PC [31:0] $end
    $var wire 32 l RS1 [31:0] $end
    $var wire 32 m RS2 [31:0] $end
    $var wire 32 n IMM [31:0] $end
    $var wire 1 o SRC_A_SEL $end
    $var wire 2 p SRC_B_SEL [1:0] $end
    $var wire 4 q ALU_CTRL [3:0] $end
    $var wire 32 r ALU_RESULT [31:0] $end
    $var wire 1 s MEM_WRITE $end
    $var wire 1 t MEM_READ $end
    $var wire 1 u REG_WRITE $end
    $var wire 32 v MEM_DATA [31:0] $end
    $var wire 2 w RF_MUX_SEL [1:0] $end
    $var wire 5 x DEST_REG [4:0] $end
    $var wire 32 y DEST_REG_DATA [31:0] $end
    $var wire 1 z ERR $end
   $upscope $end
   $scope module MEM_WB $end
    $var wire 32 { IR [31:0] $end
    $var wire 32 | PC [31:0] $end
    $var wire 32 } NEXT_PC [31:0] $end
    $var wire 32 ~ RS1 [31:0] $end
    $var wire 32 !! RS2 [31:0] $end
    $var wire 32 "! IMM [31:0] $end
    $var wire 1 #! SRC_A_SEL $end
    $var wire 2 $! SRC_B_SEL [1:0] $end
    $var wire 4 %! ALU_CTRL [3:0] $end
    $var wire 32 &! ALU_RESULT [31:0] $end
    $var wire 1 '! MEM_WRITE $end
    $var wire 1 (! MEM_READ $end
    $var wire 1 )! REG_WRITE $end
    $var wire 32 *! MEM_DATA [31:0] $end
    $var wire 2 +! RF_MUX_SEL [1:0] $end
    $var wire 5 ,! DEST_REG [4:0] $end
    $var wire 32 -! DEST_REG_DATA [31:0] $end
    $var wire 1 .! ERR $end
   $upscope $end
   $var wire 32 /! ir [31:0] $end
   $var wire 32 0! pc_in [31:0] $end
   $var wire 32 1! pc_out [31:0] $end
   $var wire 32 0! nextpc [31:0] $end
   $var wire 32 W! u_type [31:0] $end
   $var wire 32 X! i_type [31:0] $end
   $var wire 32 Y! s_type [31:0] $end
   $var wire 32 Z! b_type [31:0] $end
   $var wire 32 [! j_type [31:0] $end
   $var wire 32 # rs1 [31:0] $end
   $var wire 32 $ rs2 [31:0] $end
   $var wire 3 \! pc_sel [2:0] $end
   $var wire 1 2! src_a_sel $end
   $var wire 2 3! src_b_sel [1:0] $end
   $var wire 4 4! alu_ctrl [3:0] $end
   $var wire 1 5! regwrite $end
   $var wire 1 6! memwrite $end
   $var wire 1 7! memread $end
   $var wire 2 8! rf_sel [1:0] $end
   $var wire 3 9! imm_sel [2:0] $end
   $var wire 32 :! imm [31:0] $end
   $var wire 32 ;! src_a_out [31:0] $end
   $var wire 32 <! src_b_out [31:0] $end
   $var wire 32 =! alu_result [31:0] $end
   $var wire 32 >! memout [31:0] $end
   $var wire 1 ?! memerr $end
   $var wire 1 @! zero $end
   $var wire 2 +! rf_mux_sel [1:0] $end
   $var wire 32 } rf_nextPC [31:0] $end
   $var wire 32 &! rf_alu_result [31:0] $end
   $var wire 32 A! rf_rd [31:0] $end
   $scope module OTTER_ALU $end
    $var wire 32 ;! SRC_A [31:0] $end
    $var wire 32 <! SRC_B [31:0] $end
    $var wire 4 _ ALU_CTRL [3:0] $end
    $var wire 32 =! RESULT [31:0] $end
    $var wire 1 @! ZERO $end
   $upscope $end
   $scope module OTTER_CU $end
    $var wire 7 B! OPCODE [6:0] $end
    $var wire 3 C! FUNC3 [2:0] $end
    $var wire 1 D! FUNC7 $end
    $var wire 1 5! REG_WRITE $end
    $var wire 1 6! MEM_WRITE $end
    $var wire 1 7! MEM_READ2 $end
    $var wire 2 8! RF_SEL [1:0] $end
    $var wire 4 4! ALU_FUN [3:0] $end
    $var wire 1 2! ALU_SRCA $end
    $var wire 2 3! ALU_SRCB [1:0] $end
    $var wire 3 \! PC_SRC [2:0] $end
    $var wire 3 9! IMM_SEL [2:0] $end
   $upscope $end
   $scope module OTTER_IG $end
    $var wire 25 E! IR [24:0] $end
    $var wire 3 9! IMM_SEL [2:0] $end
    $var wire 32 :! IMM [31:0] $end
    $var wire 32 F! U_TYPE [31:0] $end
    $var wire 32 G! I_TYPE [31:0] $end
    $var wire 32 H! S_TYPE [31:0] $end
    $var wire 32 I! B_TYPE [31:0] $end
    $var wire 32 J! J_TYPE [31:0] $end
   $upscope $end
   $scope module OTTER_MEM $end
    $var wire 32 ]! ACTUAL_WIDTH [31:0] $end
    $var wire 32 1! MEM_ADDR1 [31:0] $end
    $var wire 32 r MEM_ADDR2 [31:0] $end
    $var wire 1 S! MEM_CLK $end
    $var wire 32 m MEM_DIN2 [31:0] $end
    $var wire 1 s MEM_WRITE2 $end
    $var wire 1 ^! MEM_READ1 $end
    $var wire 1 t MEM_READ2 $end
    $var wire 32 _! IO_IN [31:0] $end
    $var wire 1 ?! ERR $end
    $var wire 32 /! MEM_DOUT1 [31:0] $end
    $var wire 32 >! MEM_DOUT2 [31:0] $end
    $var wire 1 K! IO_WR $end
    $var wire 14 L! memAddr1 [13:0] $end
    $var wire 14 M! memAddr2 [13:0] $end
    $var wire 1 N! memWrite2 $end
    $var wire 32 O! memOut2 [31:0] $end
    $var wire 32 P! ioIn_buffer [31:0] $end
   $upscope $end
   $scope module OTTER_PC $end
    $var wire 1 S! CLK $end
    $var wire 1 T! RST $end
    $var wire 1 `! PC_EN $end
    $var wire 32 0! PC_IN [31:0] $end
    $var wire 32 1! PC_OUT [31:0] $end
   $upscope $end
   $scope module OTTER_RF $end
    $var wire 1 S! CLK $end
    $var wire 5 Q! REG_ADDR1 [4:0] $end
    $var wire 5 R! REG_ADDR2 [4:0] $end
    $var wire 1 )! WRITE_EN $end
    $var wire 5 ,! WRITE_ADDR [4:0] $end
    $var wire 32 A! WRITE_DATA [31:0] $end
    $var wire 32 # REG_1_DATA [31:0] $end
    $var wire 32 $ REG_2_DATA [31:0] $end
    $var wire 32 % register[0] [31:0] $end
    $var wire 32 & register[1] [31:0] $end
    $var wire 32 ' register[2] [31:0] $end
    $var wire 32 ( register[3] [31:0] $end
    $var wire 32 ) register[4] [31:0] $end
    $var wire 32 * register[5] [31:0] $end
    $var wire 32 + register[6] [31:0] $end
    $var wire 32 , register[7] [31:0] $end
    $var wire 32 - register[8] [31:0] $end
    $var wire 32 . register[9] [31:0] $end
    $var wire 32 / register[10] [31:0] $end
    $var wire 32 0 register[11] [31:0] $end
    $var wire 32 1 register[12] [31:0] $end
    $var wire 32 2 register[13] [31:0] $end
    $var wire 32 3 register[14] [31:0] $end
    $var wire 32 4 register[15] [31:0] $end
    $var wire 32 5 register[16] [31:0] $end
    $var wire 32 6 register[17] [31:0] $end
    $var wire 32 7 register[18] [31:0] $end
    $var wire 32 8 register[19] [31:0] $end
    $var wire 32 9 register[20] [31:0] $end
    $var wire 32 : register[21] [31:0] $end
    $var wire 32 ; register[22] [31:0] $end
    $var wire 32 < register[23] [31:0] $end
    $var wire 32 = register[24] [31:0] $end
    $var wire 32 > register[25] [31:0] $end
    $var wire 32 ? register[26] [31:0] $end
    $var wire 32 @ register[27] [31:0] $end
    $var wire 32 A register[28] [31:0] $end
    $var wire 32 B register[29] [31:0] $end
    $var wire 32 C register[30] [31:0] $end
    $var wire 32 D register[31] [31:0] $end
    $scope module unnamedblk1 $end
     $var wire 32 U! i [31:0] $end
    $upscope $end
   $upscope $end
   $scope module PC_MUX $end
    $var wire 2 a! SEL [1:0] $end
    $var wire 32 0! D0 [31:0] $end
    $var wire 32 b! D1 [31:0] $end
    $var wire 32 b! D2 [31:0] $end
    $var wire 32 b! D3 [31:0] $end
    $var wire 32 0! DOUT [31:0] $end
   $upscope $end
   $scope module RF_MUX $end
    $var wire 2 8! SEL [1:0] $end
    $var wire 32 } D0 [31:0] $end
    $var wire 32 b! D1 [31:0] $end
    $var wire 32 >! D2 [31:0] $end
    $var wire 32 &! D3 [31:0] $end
    $var wire 32 A! DOUT [31:0] $end
   $upscope $end
   $scope module SRC_A_MUX $end
    $var wire 1 ] SEL $end
    $var wire 32 Z D0 [31:0] $end
    $var wire 32 \ D1 [31:0] $end
    $var wire 32 ;! DOUT [31:0] $end
   $upscope $end
   $scope module SRC_B_MUX $end
    $var wire 2 ^ SEL [1:0] $end
    $var wire 32 [ D0 [31:0] $end
    $var wire 32 \ D1 [31:0] $end
    $var wire 32 X D2 [31:0] $end
    $var wire 32 b! D3 [31:0] $end
    $var wire 32 <! DOUT [31:0] $end
   $upscope $end
  $upscope $end
 $upscope $end
$enddefinitions $end


#0
b00000000000000000000000000000000 #
b00000000000000000000000000000000 $
b00000000000000000000000000000000 %
b00000000000000000000000000000000 &
b00000000000000000000000000000000 '
b00000000000000000000000000000000 (
b00000000000000000000000000000000 )
b00000000000000000000000000000000 *
b00000000000000000000000000000000 +
b00000000000000000000000000000000 ,
b00000000000000000000000000000000 -
b00000000000000000000000000000000 .
b00000000000000000000000000000000 /
b00000000000000000000000000000000 0
b00000000000000000000000000000000 1
b00000000000000000000000000000000 2
b00000000000000000000000000000000 3
b00000000000000000000000000000000 4
b00000000000000000000000000000000 5
b00000000000000000000000000000000 6
b00000000000000000000000000000000 7
b00000000000000000000000000000000 8
b00000000000000000000000000000000 9
b00000000000000000000000000000000 :
b00000000000000000000000000000000 ;
b00000000000000000000000000000000 <
b00000000000000000000000000000000 =
b00000000000000000000000000000000 >
b00000000000000000000000000000000 ?
b00000000000000000000000000000000 @
b00000000000000000000000000000000 A
b00000000000000000000000000000000 B
b00000000000000000000000000000000 C
b00000000000000000000000000000000 D
b00000000000000000000000000000000 E
b00000000000000000000000000000000 F
b00000000000000000000000000000000 G
b00000000000000000000000000000000 H
b00000000000000000000000000000000 I
b00000000000000000000000000000000 J
0K
b00 L
b0000 M
b00000000000000000000000000000000 N
0O
0P
0Q
b00000000000000000000000000000000 R
b00 S
b00000 T
b00000000000000000000000000000000 U
0V
b00000000000000000000000000000000 W
b00000000000000000000000000000000 X
b00000000000000000000000000000000 Y
b00000000000000000000000000000000 Z
b00000000000000000000000000000000 [
b00000000000000000000000000000000 \
0]
b00 ^
b0000 _
b00000000000000000000000000000000 `
0a
0b
0c
b00000000000000000000000000000000 d
b00 e
b00000 f
b00000000000000000000000000000000 g
0h
b00000000000000000000000000000000 i
b00000000000000000000000000000000 j
b00000000000000000000000000000000 k
b00000000000000000000000000000000 l
b00000000000000000000000000000000 m
b00000000000000000000000000000000 n
0o
b00 p
b0000 q
b00000000000000000000000000000000 r
0s
0t
0u
b00000000000000000000000000000000 v
b00 w
b00000 x
b00000000000000000000000000000000 y
0z
b00000000000000000000000000000000 {
b00000000000000000000000000000000 |
b00000000000000000000000000000000 }
b00000000000000000000000000000000 ~
b00000000000000000000000000000000 !!
b00000000000000000000000000000000 "!
0#!
b00 $!
b0000 %!
b00000000000000000000000000000000 &!
0'!
0(!
0)!
b00000000000000000000000000000000 *!
b00 +!
b00000 ,!
b00000000000000000000000000000000 -!
0.!
b00000000000000000000000000000000 /!
b00000000000000000000000000000100 0!
b00000000000000000000000000000000 1!
02!
b00 3!
b0000 4!
05!
06!
07!
b00 8!
b000 9!
b00000000000000000000000000000000 :!
b00000000000000000000000000000000 ;!
b00000000000000000000000000000000 <!
b00000000000000000000000000000000 =!
b00000000000000000000000000000000 >!
0?!
0@!
b00000000000000000000000000000000 A!
b0000000 B!
b000 C!
0D!
b0000000000000000000000000 E!
b00000000000000000000000000000000 F!
b00000000000000000000000000000000 G!
b00000000000000000000000000000000 H!
b00000000000000000000000000000000 I!
b00000000000000000000000000000000 J!
0K!
b00000000000000 L!
b00000000000000 M!
0N!
b00000000000000000000000000000000 O!
b00000000000000000000000000000000 P!
b00000 Q!
b00000 R!
0S!
1T!
b00000000000000000000000000100000 U!
0V!
b00000000000000000000000000000000 W!
b00000000000000000000000000000000 X!
b00000000000000000000000000000000 Y!
b00000000000000000000000000000000 Z!
b00000000000000000000000000000000 [!
b000 \!
b00000000000000000000000000001110 ]!
1^!
b00000000000000000000000000000000 _!
0`!
b00 a!
b00000000000000000000000000000000 b!
#5000
#10000
b00000000101001010000010100010011 /!
1S!
#15000
0S!
#20000
1S!
#25000
0S!
#30000
1S!
#35000
0S!
#40000
1S!
#45000
0S!
#50000
1S!
#55000
0S!
#60000
1S!
#65000
0S!
#70000
1S!
#75000
0S!
#80000
1S!
#85000
0S!
#90000
1S!
#95000
0S!
#100000
1S!
#105000
0S!
#110000
1S!
#115000
0S!
#120000
1S!
#125000
0S!
#130000
1S!
#135000
0S!
#140000
1S!
#145000
0S!
#150000
1S!
#155000
0S!
#160000
1S!
#165000
0S!
#170000
1S!
#175000
0S!
#180000
1S!
#185000
0S!
#190000
1S!
#195000
0S!
#200000
b00000000101001010000010100010011 E
b00000000000000000000000000000100 G
b00000000000000000000000000001000 0!
b00000000000000000000000000000100 1!
b01 3!
15!
b11 8!
b00000000000000000000000000001010 :!
b0010011 B!
b0000000010100101000001010 E!
b00000000101001010000000000000000 F!
b00000000000000000000000000001010 G!
b00000000000000000000000000001010 H!
b00000000000000000000000000001010 I!
b00000000000001010000000000001010 J!
b00000000000001 L!
1S!
0T!
#205000
0S!
#210000
b00000000000000000000000000010011 E
b00000000000000000000000000000100 F
b00000000000000000000000000001000 G
b00000000101001010000010100010011 W
b00000000000000000000000000000100 Y
b00000000000000000000000000001010 \
b01 ^
1c
b11 e
b01010 f
b00000000000000000000000000010011 /!
b00000000000000000000000000001100 0!
b00000000000000000000000000001000 1!
b00000000000000000000000000000000 :!
b00000000000000000000000000001010 <!
b00000000000000000000000000001010 =!
1@!
b0000000000000000000000000 E!
b00000000000000000000000000000000 F!
b00000000000000000000000000000000 G!
b00000000000000000000000000000000 H!
b00000000000000000000000000000000 I!
b00000000000000000000000000000000 J!
b00000000000010 L!
b01010 Q!
b01010 R!
1S!
#215000
0S!
#220000
b00000000000000000000000000001000 F
b00000000000000000000000000001100 G
b00000000000000000000000000010011 W
b00000000000000000000000000000100 X
b00000000000000000000000000001000 Y
b00000000000000000000000000000000 \
b00000 f
b00000000101001010000010100010011 i
b00000000000000000000000000000100 k
b01 p
b00000000000000000000000000001010 r
1u
b11 w
b01010 x
b00000000000000000000000000010000 0!
b00000000000000000000000000001100 1!
b00000000000000000000000000000000 <!
b00000000000000000000000000000000 =!
1?!
0@!
b00000000000011 L!
b00000000000010 M!
b00000 Q!
b00000 R!
1S!
#225000
0S!
#230000
b00000000101001000000010000110011 E
b00000000000000000000000000001100 F
b00000000000000000000000000010000 G
b00000000000000000000000000001000 X
b00000000000000000000000000001100 Y
b00000000000000000000000000010011 i
b00000000000000000000000000000100 j
b00000000000000000000000000001000 k
b00000000000000000000000000000000 r
b00000 x
b00000000000000000000000000000100 }
b01 $!
b00000000000000000000000000001010 &!
1)!
b11 +!
b01010 ,!
1.!
b00000000101001000000010000110011 /!
b00000000000000000000000000010100 0!
b00000000000000000000000000010000 1!
b00 3!
b00000000000000000000000000001010 :!
0?!
b00000000000000000000000000001010 A!
b0110011 B!
b0000000010100100000001000 E!
b00000000101001000000000000000000 F!
b00000000000000000000000000001010 G!
b00000000000000000000000000001000 H!
b00000000000000000000000000001000 I!
b00000000000001000000000000001010 J!
b00000000000100 L!
b00000000000000 M!
1S!
#235000
0S!
#240000
b00000000000000000000000000001010 $
b00000000000000000000000000001010 /
b00000000000000000000000000010011 E
b00000000000000000000000000010000 F
b00000000000000000000000000010100 G
b00000000101001000000010000110011 W
b00000000000000000000000000001100 X
b00000000000000000000000000010000 Y
b00000000000000000000000000001010 \
b00 ^
b01000 f
b00000000000000000000000000001000 j
b00000000000000000000000000001100 k
b00000000000000000000000000000100 |
b00000000000000000000000000001000 }
b00000000000000000000000000000000 &!
b00000 ,!
0.!
b00000000000000000000000000010011 /!
b00000000000000000000000000011000 0!
b00000000000000000000000000010100 1!
b01 3!
b00000000000000000000000000000000 :!
b00000000000000000000000000000000 A!
b0010011 B!
b0000000000000000000000000 E!
b00000000000000000000000000000000 F!
b00000000000000000000000000000000 G!
b00000000000000000000000000000000 H!
b00000000000000000000000000000000 I!
b00000000000000000000000000000000 J!
b00000000000101 L!
b01000 Q!
b01010 R!
1S!
#245000
0S!
#250000
b00000000000000000000000000000000 $
b00000000000000000000000000010100 F
b00000000000000000000000000011000 G
b00000000000000000000000000010011 W
b00000000000000000000000000010000 X
b00000000000000000000000000010100 Y
b00000000000000000000000000001010 [
b00000000000000000000000000000000 \
b01 ^
b00000 f
b00000000101001000000010000110011 i
b00000000000000000000000000001100 j
b00000000000000000000000000010000 k
b00 p
b01000 x
b00000000000000000000000000001000 |
b00000000000000000000000000001100 }
b00000000000000000000000000011100 0!
b00000000000000000000000000011000 1!
b00000000000110 L!
b00000 Q!
b00000 R!
1S!
#255000
0S!
#260000
b00000000000000000110010010110111 E
b00000000000000000000000000011000 F
b00000000000000000000000000011100 G
b00000000000000000000000000010100 X
b00000000000000000000000000011000 Y
b00000000000000000000000000000000 [
b00000000000000000000000000010011 i
b00000000000000000000000000010000 j
b00000000000000000000000000010100 k
b00000000000000000000000000001010 m
b01 p
b00000 x
b00000000000000000000000000001100 |
b00000000000000000000000000010000 }
b00 $!
b01000 ,!
b00000000000000000110010010110111 /!
b00000000000000000000000000100000 0!
b00000000000000000000000000011100 1!
12!
b00 3!
b1001 4!
b011 9!
b00000000000000000110000000000000 :!
b0110111 B!
b110 C!
b0000000000000000011001001 E!
b00000000000000000110000000000000 F!
b00000000000000000000000000001001 H!
b00000000000000000000100000001000 I!
b00000000000000000110000000000000 J!
b00000000000111 L!
1S!
#265000
0S!
#270000
b00000000000000000000000000010011 E
b00000000000000000000000000011100 F
b00000000000000000000000000100000 G
b00000000000000000110010010110111 W
b00000000000000000000000000011000 X
b00000000000000000000000000011100 Y
b00000000000000000110000000000000 \
1]
b00 ^
b1001 _
b01001 f
b00000000000000000000000000010100 j
b00000000000000000000000000011000 k
b00000000000000000000000000000000 m
b00000000000000000000000000010000 |
b00000000000000000000000000010100 }
b00000000000000000000000000001010 !!
b01 $!
b00000 ,!
b00000000000000000000000000010011 /!
b00000000000000000000000000100100 0!
b00000000000000000000000000100000 1!
02!
b01 3!
b0000 4!
b000 9!
b00000000000000000000000000000000 :!
b00000000000000000110000000000000 ;!
b00000000000000000110000000000000 =!
1@!
b0010011 B!
b000 C!
b0000000000000000000000000 E!
b00000000000000000000000000000000 F!
b00000000000000000000000000000000 H!
b00000000000000000000000000000000 I!
b00000000000000000000000000000000 J!
b00000000001000 L!
1S!
#275000
0S!
#280000
b00000000000000000000000000100000 F
b00000000000000000000000000100100 G
b00000000000000000000000000010011 W
b00000000000000000000000000011100 X
b00000000000000000000000000100000 Y
b00000000000000000000000000000000 \
0]
b01 ^
b0000 _
b00000 f
b00000000000000000110010010110111 i
b00000000000000000000000000011000 j
b00000000000000000000000000011100 k
1o
b00 p
b1001 q
b00000000000000000110000000000000 r
b01001 x
b00000000000000000000000000010100 |
b00000000000000000000000000011000 }
b00000000000000000000000000000000 !!
b00000000000000000000000000101000 0!
b00000000000000000000000000100100 1!
b00000000000000000000000000000000 ;!
b00000000000000000000000000000000 =!
1?!
0@!
b00000000001001 L!
b01100000000000 M!
1S!
#285000
0S!
#290000
b00000000000000000000000000100100 F
b00000000000000000000000000101000 G
b00000000000000000000000000100000 X
b00000000000000000000000000100100 Y
b00000000000000000000000000010011 i
b00000000000000000000000000011100 j
b00000000000000000000000000100000 k
0o
b01 p
b0000 q
b00000000000000000000000000000000 r
b00000 x
b00000000000000000000000000011000 |
b00000000000000000000000000011100 }
1#!
b00 $!
b1001 %!
b00000000000000000110000000000000 &!
b01001 ,!
1.!
b00000000000000000000000000101100 0!
b00000000000000000000000000101000 1!
0?!
b00000000000000000110000000000000 A!
b00000000001010 L!
b00000000000000 M!
1S!
#295000
0S!
#300000
b00000000000000000110000000000000 .
b00000000100001001010000000100011 E
b00000000000000000000000000101000 F
b00000000000000000000000000101100 G
b00000000000000000000000000100100 X
b00000000000000000000000000101000 Y
b00000000000000000000000000100000 j
b00000000000000000000000000100100 k
b00000000000000000000000000011100 |
b00000000000000000000000000100000 }
0#!
b01 $!
b0000 %!
b00000000000000000000000000000000 &!
b00000 ,!
0.!
b00000000100001001010000000100011 /!
b00000000000000000000000000110000 0!
b00000000000000000000000000101100 1!
05!
16!
b00 8!
b001 9!
b00000000000000000000000000100000 A!
b0100011 B!
b010 C!
b0000000010000100101000000 E!
b00000000100001001010000000000000 F!
b00000000000000000000000000001000 G!
b00000000000001001010000000001000 J!
b00000000001011 L!
1S!
#305000
0S!
#310000
b00000000000000000110000000000000 #
b00000000000000000000000000010011 E
b00000000000000000000000000101100 F
b00000000000000000000000000110000 G
b00000000100001001010000000100011 W
b00000000000000000000000000101000 X
b00000000000000000000000000101100 Y
1a
0c
b00 e
b00000000000000000000000000100100 j
b00000000000000000000000000101000 k
b00000000000000000000000000100000 |
b00000000000000000000000000100100 }
b00000000000000000000000000010011 /!
b00000000000000000000000000110100 0!
b00000000000000000000000000110000 1!
15!
06!
b11 8!
b000 9!
b00000000000000000000000000000000 A!
b0010011 B!
b000 C!
b0000000000000000000000000 E!
b00000000000000000000000000000000 F!
b00000000000000000000000000000000 G!
b00000000000000000000000000000000 J!
b00000000001100 L!
b01001 Q!
b01000 R!
1S!
#315000
0S!
#320000
b00000000000000000000000000000000 #
b00000000000000000000000000110000 F
b00000000000000000000000000110100 G
b00000000000000000000000000010011 W
b00000000000000000000000000101100 X
b00000000000000000000000000110000 Y
b00000000000000000110000000000000 Z
0a
1c
b11 e
b00000000100001001010000000100011 i
b00000000000000000000000000101000 j
b00000000000000000000000000101100 k
1s
0u
b00 w
b00000000000000000000000000100100 |
b00000000000000000000000000101000 }
b00000000000000000000000000111000 0!
b00000000000000000000000000110100 1!
b00000000000000000110000000000000 ;!
b00000000000000000110000000000000 =!
1@!
b00000000001101 L!
1N!
b00000 Q!
b00000 R!
1S!
#325000
0S!
#330000
b00000000000001001010010110000011 E
b00000000000000000000000000110100 F
b00000000000000000000000000111000 G
b00000000000000000000000000110000 X
b00000000000000000000000000110100 Y
b00000000000000000000000000000000 Z
b00000000000000000000000000010011 i
b00000000000000000000000000101100 j
b00000000000000000000000000110000 k
b00000000000000000110000000000000 l
b00000000000000000110000000000000 r
0s
1u
b11 w
b00000000000000000000000000101000 |
b00000000000000000000000000101100 }
1'!
0)!
b00 +!
b00000000000001001010010110000011 /!
b00000000000000000000000000111100 0!
b00000000000000000000000000111000 1!
17!
b10 8!
b00000000000000000000000000000000 ;!
b00000000000000000000000000000000 =!
1?!
0@!
b0000011 B!
b010 C!
b0000000000000100101001011 E!
b00000000000001001010000000000000 F!
b00000000000000000000000000001011 H!
b00000000000000000000100000001010 I!
b00000000000001001010000000000000 J!
b00000000001110 L!
b01100000000000 M!
0N!
1S!
#335000
0S!
#340000
b00000000000000000110000000000000 #
b00000000000000000000000000000000 E
b00000000000000000000000000111000 F
b00000000000000000000000000111100 G
b00000000000001001010010110000011 W
b00000000000000000000000000110100 X
b00000000000000000000000000111000 Y
1b
b10 e
b01011 f
b00000000000000000000000000110000 j
b00000000000000000000000000110100 k
b00000000000000000000000000000000 l
b00000000000000000000000000000000 r
b00000000000000000000000000101100 |
b00000000000000000000000000110000 }
b00000000000000000110000000000000 ~
b00000000000000000110000000000000 &!
0'!
1)!
b11 +!
1.!
b00000000000000000000000000000000 /!
b00000000000000000000000001000000 0!
b00000000000000000000000000111100 1!
b00 3!
05!
07!
b00 8!
0?!
b00000000000000000000000000110000 A!
b0000000 B!
b000 C!
b0000000000000000000000000 E!
b00000000000000000000000000000000 F!
b00000000000000000000000000000000 H!
b00000000000000000000000000000000 I!
b00000000000000000000000000000000 J!
b00000000001111 L!
b00000000000000 M!
b01001 Q!
1S!
#345000
0S!
#350000
b00000000000000000000000000000000 #
b00000000000000000000000000111100 F
b00000000000000000000000001000000 G
b00000000000000000000000000000000 W
b00000000000000000000000000111000 X
b00000000000000000000000000111100 Y
b00000000000000000110000000000000 Z
b00 ^
0b
0c
b00 e
b00000 f
b00000000000001001010010110000011 i
b00000000000000000000000000110100 j
b00000000000000000000000000111000 k
1t
b10 w
b01011 x
b00000000000000000000000000110000 |
b00000000000000000000000000110100 }
b00000000000000000000000000000000 ~
b00000000000000000000000000000000 &!
0.!
b00000000000000000000000001000100 0!
b00000000000000000000000001000000 1!
b00000000000000000110000000000000 ;!
b00000000000000000110000000000000 =!
1@!
b00000000000000000000000000110100 A!
b00000000010000 L!
b00000 Q!
1S!
#355000
0S!
#360000
b00000000000000000000000001000000 F
b00000000000000000000000001000100 G
b00000000000000000000000000111100 X
b00000000000000000000000001000000 Y
b00000000000000000000000000000000 Z
b00000000000000000000000000000000 i
b00000000000000000000000000111000 j
b00000000000000000000000000111100 k
b00000000000000000110000000000000 l
b00 p
b00000000000000000110000000000000 r
0t
0u
b00 w
b00000 x
b00000000000000000000000000110100 |
b00000000000000000000000000111000 }
1(!
b10 +!
b01011 ,!
b00000000000000000000000001001000 0!
b00000000000000000000000001000100 1!
b00000000000000000000000000000000 ;!
b00000000000000000000000000000000 =!
1?!
0@!
b00000000000000000000000000111000 A!
b00000000010001 L!
b01100000000000 M!
1S!
#365000
0S!
#370000
b00000000000000000000000000111000 0
b00000000000000000000000001000100 F
b00000000000000000000000001001000 G
b00000000000000000000000001000000 X
b00000000000000000000000001000100 Y
b00000000000000000000000000111100 j
b00000000000000000000000001000000 k
b00000000000000000000000000000000 l
b00000000000000000000000000000000 r
b00000000000000000000000000111000 |
b00000000000000000000000000111100 }
b00000000000000000110000000000000 ~
b00 $!
b00000000000000000110000000000000 &!
0(!
0)!
b00 +!
b00000 ,!
1.!
b00000000000000000000000001001100 0!
b00000000000000000000000001001000 1!
0?!
b00000000000000000000000000111100 A!
b00000000010010 L!
b00000000000000 M!
1S!
#375000
0S!
#380000
b00000000000000000000000001001000 F
b00000000000000000000000001001100 G
b00000000000000000000000001000100 X
b00000000000000000000000001001000 Y
b00000000000000000000000001000000 j
b00000000000000000000000001000100 k
b00000000000000000000000000111100 |
b00000000000000000000000001000000 }
b00000000000000000000000000000000 ~
b00000000000000000000000000000000 &!
0.!
b00000000000000000000000001010000 0!
b00000000000000000000000001001100 1!
b00000000000000000000000001000000 A!
b00000000010011 L!
1S!
#385000
0S!
#390000
b00000000000000000000000001001100 F
b00000000000000000000000001010000 G
b00000000000000000000000001001000 X
b00000000000000000000000001001100 Y
b00000000000000000000000001000100 j
b00000000000000000000000001001000 k
b00000000000000000000000001000000 |
b00000000000000000000000001000100 }
b00000000000000000000000001010100 0!
b00000000000000000000000001010000 1!
b00000000000000000000000001000100 A!
b00000000010100 L!
1S!
#395000
0S!
#400000
b00000000000000000000000001010000 F
b00000000000000000000000001010100 G
b00000000000000000000000001001100 X
b00000000000000000000000001010000 Y
b00000000000000000000000001001000 j
b00000000000000000000000001001100 k
b00000000000000000000000001000100 |
b00000000000000000000000001001000 }
b00000000000000000000000001011000 0!
b00000000000000000000000001010100 1!
b00000000000000000000000001001000 A!
b00000000010101 L!
1S!
#405000
0S!
#410000
b00000000000000000000000001010100 F
b00000000000000000000000001011000 G
b00000000000000000000000001010000 X
b00000000000000000000000001010100 Y
b00000000000000000000000001001100 j
b00000000000000000000000001010000 k
b00000000000000000000000001001000 |
b00000000000000000000000001001100 }
b00000000000000000000000001011100 0!
b00000000000000000000000001011000 1!
b00000000000000000000000001001100 A!
b00000000010110 L!
1S!
#415000
0S!
#420000
b00000000000000000000000001011000 F
b00000000000000000000000001011100 G
b00000000000000000000000001010100 X
b00000000000000000000000001011000 Y
b00000000000000000000000001010000 j
b00000000000000000000000001010100 k
b00000000000000000000000001001100 |
b00000000000000000000000001010000 }
b00000000000000000000000001100000 0!
b00000000000000000000000001011100 1!
b00000000000000000000000001010000 A!
b00000000010111 L!
1S!
