tests/tb_OTTER/tb_OTTER.vcd
$version Generated by VerilatedVcd $end
$timescale 1ps $end
 $scope module $rootio $end
 $upscope $end
 $scope module tb_OTTER $end
  $var wire 1 h! CLK $end
  $var wire 1 i! RST $end
  $scope module UUT $end
   $var wire 1 h! CLK $end
   $var wire 1 i! RST $end
   $var wire 1 k! mem_err $end
   $scope module FE_DE $end
    $var wire 32 E IR [31:0] $end
    $var wire 32 F PC [31:0] $end
    $var wire 32 G NEXT_PC [31:0] $end
    $var wire 32 H RS1 [31:0] $end
    $var wire 32 I RS2 [31:0] $end
    $var wire 32 J IMM [31:0] $end
    $var wire 1 K SRC_A_SEL $end
    $var wire 2 L SRC_B_SEL [1:0] $end
    $var wire 4 M ALU_CTRL [3:0] $end
    $var wire 32 N ALU_RESULT [31:0] $end
    $var wire 1 O MEM_WRITE $end
    $var wire 1 P MEM_READ $end
    $var wire 1 Q REG_WRITE $end
    $var wire 32 R MEM_DATA [31:0] $end
    $var wire 2 S RF_MUX_SEL [1:0] $end
    $var wire 5 T DEST_REG [4:0] $end
    $var wire 32 U DEST_REG_DATA [31:0] $end
    $var wire 1 V ERR $end
    $var wire 32 W DIN2 [31:0] $end
   $upscope $end
   $scope module DE_EX $end
    $var wire 32 N! IR [31:0] $end
    $var wire 32 O! PC [31:0] $end
    $var wire 32 P! NEXT_PC [31:0] $end
    $var wire 32 Q! RS1 [31:0] $end
    $var wire 32 R! RS2 [31:0] $end
    $var wire 32 S! IMM [31:0] $end
    $var wire 1 T! SRC_A_SEL $end
    $var wire 2 U! SRC_B_SEL [1:0] $end
    $var wire 4 V! ALU_CTRL [3:0] $end
    $var wire 32 W! ALU_RESULT [31:0] $end
    $var wire 1 X! MEM_WRITE $end
    $var wire 1 Y! MEM_READ $end
    $var wire 1 Z! REG_WRITE $end
    $var wire 32 [! MEM_DATA [31:0] $end
    $var wire 2 \! RF_MUX_SEL [1:0] $end
    $var wire 5 ]! DEST_REG [4:0] $end
    $var wire 32 ^! DEST_REG_DATA [31:0] $end
    $var wire 1 _! ERR $end
    $var wire 32 `! DIN2 [31:0] $end
   $upscope $end
   $scope module EX_MEM $end
    $var wire 32 X IR [31:0] $end
    $var wire 32 Y PC [31:0] $end
    $var wire 32 Z NEXT_PC [31:0] $end
    $var wire 32 [ RS1 [31:0] $end
    $var wire 32 \ RS2 [31:0] $end
    $var wire 32 ] IMM [31:0] $end
    $var wire 1 ^ SRC_A_SEL $end
    $var wire 2 _ SRC_B_SEL [1:0] $end
    $var wire 4 ` ALU_CTRL [3:0] $end
    $var wire 32 a ALU_RESULT [31:0] $end
    $var wire 1 b MEM_WRITE $end
    $var wire 1 c MEM_READ $end
    $var wire 1 d REG_WRITE $end
    $var wire 32 e MEM_DATA [31:0] $end
    $var wire 2 f RF_MUX_SEL [1:0] $end
    $var wire 5 g DEST_REG [4:0] $end
    $var wire 32 h DEST_REG_DATA [31:0] $end
    $var wire 1 i ERR $end
    $var wire 32 j DIN2 [31:0] $end
   $upscope $end
   $scope module MEM_WB $end
    $var wire 32 k IR [31:0] $end
    $var wire 32 l PC [31:0] $end
    $var wire 32 m NEXT_PC [31:0] $end
    $var wire 32 n RS1 [31:0] $end
    $var wire 32 o RS2 [31:0] $end
    $var wire 32 p IMM [31:0] $end
    $var wire 1 q SRC_A_SEL $end
    $var wire 2 r SRC_B_SEL [1:0] $end
    $var wire 4 s ALU_CTRL [3:0] $end
    $var wire 32 t ALU_RESULT [31:0] $end
    $var wire 1 u MEM_WRITE $end
    $var wire 1 v MEM_READ $end
    $var wire 1 w REG_WRITE $end
    $var wire 32 x MEM_DATA [31:0] $end
    $var wire 2 y RF_MUX_SEL [1:0] $end
    $var wire 5 z DEST_REG [4:0] $end
    $var wire 32 { DEST_REG_DATA [31:0] $end
    $var wire 1 | ERR $end
    $var wire 32 } DIN2 [31:0] $end
   $upscope $end
   $var wire 32 ~ ir [31:0] $end
   $var wire 32 !! pc_in [31:0] $end
   $var wire 32 "! pc_out [31:0] $end
   $var wire 32 !! nextpc [31:0] $end
   $var wire 32 l! u_type [31:0] $end
   $var wire 32 m! i_type [31:0] $end
   $var wire 32 n! s_type [31:0] $end
   $var wire 32 o! b_type [31:0] $end
   $var wire 32 p! j_type [31:0] $end
   $var wire 32 # rs1 [31:0] $end
   $var wire 32 $ rs2 [31:0] $end
   $var wire 3 q! pc_sel [2:0] $end
   $var wire 1 #! src_a_sel $end
   $var wire 2 $! src_b_sel [1:0] $end
   $var wire 4 %! alu_ctrl [3:0] $end
   $var wire 1 &! regwrite $end
   $var wire 1 '! memwrite $end
   $var wire 1 (! memread $end
   $var wire 2 )! rf_sel [1:0] $end
   $var wire 3 *! imm_sel [2:0] $end
   $var wire 32 +! imm [31:0] $end
   $var wire 32 a! src_a_out [31:0] $end
   $var wire 32 b! src_b_out [31:0] $end
   $var wire 32 c! alu_result [31:0] $end
   $var wire 32 ,! memout [31:0] $end
   $var wire 1 -! memerr $end
   $var wire 1 d! zero $end
   $var wire 32 e! fwd_a_out [31:0] $end
   $var wire 32 f! fwd_b_out [31:0] $end
   $var wire 2 .! fwd_a_sel [1:0] $end
   $var wire 2 /! fwd_b_sel [1:0] $end
   $var wire 2 y rf_mux_sel [1:0] $end
   $var wire 32 m rf_nextPC [31:0] $end
   $var wire 32 t rf_alu_result [31:0] $end
   $var wire 32 0! rf_rd [31:0] $end
   $var wire 2 1! sw_sel [1:0] $end
   $var wire 32 g! din2 [31:0] $end
   $var wire 1 2! stall $end
   $var wire 1 3! flush $end
   $var wire 1 4! stall_mem_read $end
   $var wire 1 5! stall_mem_write $end
   $var wire 32 6! reg_result [31:0] $end
   $scope module FWD_A_MUX $end
    $var wire 2 .! SEL [1:0] $end
    $var wire 32 a! D0 [31:0] $end
    $var wire 32 a D1 [31:0] $end
    $var wire 32 t D2 [31:0] $end
    $var wire 32 ,! D3 [31:0] $end
    $var wire 32 e! DOUT [31:0] $end
   $upscope $end
   $scope module FWD_B_MUX $end
    $var wire 2 /! SEL [1:0] $end
    $var wire 32 b! D0 [31:0] $end
    $var wire 32 a D1 [31:0] $end
    $var wire 32 t D2 [31:0] $end
    $var wire 32 ,! D3 [31:0] $end
    $var wire 32 f! DOUT [31:0] $end
   $upscope $end
   $scope module OTTER_ALU $end
    $var wire 32 e! SRC_A [31:0] $end
    $var wire 32 f! SRC_B [31:0] $end
    $var wire 4 V! ALU_CTRL [3:0] $end
    $var wire 32 c! RESULT [31:0] $end
    $var wire 1 d! ZERO $end
   $upscope $end
   $scope module OTTER_CU $end
    $var wire 7 7! OPCODE [6:0] $end
    $var wire 3 8! FUNC3 [2:0] $end
    $var wire 1 9! FUNC7 $end
    $var wire 1 &! REG_WRITE $end
    $var wire 1 '! MEM_WRITE $end
    $var wire 1 (! MEM_READ2 $end
    $var wire 2 )! RF_SEL [1:0] $end
    $var wire 4 %! ALU_FUN [3:0] $end
    $var wire 1 #! ALU_SRCA $end
    $var wire 2 $! ALU_SRCB [1:0] $end
    $var wire 3 q! PC_SRC [2:0] $end
    $var wire 3 *! IMM_SEL [2:0] $end
   $upscope $end
   $scope module OTTER_HU $end
    $var wire 32 E IR [31:0] $end
    $var wire 5 g RD_M [4:0] $end
    $var wire 5 z RD_W [4:0] $end
    $var wire 5 :! RS1 [4:0] $end
    $var wire 5 ;! RS2 [4:0] $end
    $var wire 1 '! MEM_WRITE_DE $end
    $var wire 1 4! MEM_READ_EX $end
    $var wire 1 v MEM_READ_WB $end
    $var wire 1 b MEM_WRITE_EX $end
    $var wire 2 .! FWD_A_SEL [1:0] $end
    $var wire 2 /! FWD_B_SEL [1:0] $end
    $var wire 2 1! SW_SEL [1:0] $end
    $var wire 1 2! STALL $end
    $var wire 1 3! FLUSH $end
    $var wire 1 <! MEM_FWD1 $end
    $var wire 1 =! MEM_FWD2 $end
    $var wire 1 >! WB_FWD1 $end
    $var wire 1 ?! WB_FWD2 $end
    $var wire 1 @! load_use $end
   $upscope $end
   $scope module OTTER_IG $end
    $var wire 25 A! IR [24:0] $end
    $var wire 3 *! IMM_SEL [2:0] $end
    $var wire 32 +! IMM [31:0] $end
    $var wire 32 B! U_TYPE [31:0] $end
    $var wire 32 C! I_TYPE [31:0] $end
    $var wire 32 D! S_TYPE [31:0] $end
    $var wire 32 E! B_TYPE [31:0] $end
    $var wire 32 F! J_TYPE [31:0] $end
   $upscope $end
   $scope module OTTER_MEM $end
    $var wire 32 r! ACTUAL_WIDTH [31:0] $end
    $var wire 32 "! MEM_ADDR1 [31:0] $end
    $var wire 32 a MEM_ADDR2 [31:0] $end
    $var wire 1 h! MEM_CLK $end
    $var wire 32 j MEM_DIN2 [31:0] $end
    $var wire 1 b MEM_WRITE2 $end
    $var wire 1 s! MEM_READ1 $end
    $var wire 1 c MEM_READ2 $end
    $var wire 32 t! IO_IN [31:0] $end
    $var wire 1 -! ERR $end
    $var wire 32 ~ MEM_DOUT1 [31:0] $end
    $var wire 32 ,! MEM_DOUT2 [31:0] $end
    $var wire 1 G! IO_WR $end
    $var wire 14 H! memAddr1 [13:0] $end
    $var wire 14 I! memAddr2 [13:0] $end
    $var wire 1 J! memWrite2 $end
    $var wire 32 K! memOut2 [31:0] $end
    $var wire 32 L! ioIn_buffer [31:0] $end
   $upscope $end
   $scope module OTTER_PC $end
    $var wire 1 h! CLK $end
    $var wire 1 i! RST $end
    $var wire 1 M! PC_EN $end
    $var wire 32 !! PC_IN [31:0] $end
    $var wire 32 "! PC_OUT [31:0] $end
   $upscope $end
   $scope module OTTER_RF $end
    $var wire 1 h! CLK $end
    $var wire 5 :! REG_ADDR1 [4:0] $end
    $var wire 5 ;! REG_ADDR2 [4:0] $end
    $var wire 1 w WRITE_EN $end
    $var wire 5 z WRITE_ADDR [4:0] $end
    $var wire 32 0! WRITE_DATA [31:0] $end
    $var wire 32 # REG_1_DATA [31:0] $end
    $var wire 32 $ REG_2_DATA [31:0] $end
    $var wire 32 % register[0] [31:0] $end
    $var wire 32 & register[1] [31:0] $end
    $var wire 32 ' register[2] [31:0] $end
    $var wire 32 ( register[3] [31:0] $end
    $var wire 32 ) register[4] [31:0] $end
    $var wire 32 * register[5] [31:0] $end
    $var wire 32 + register[6] [31:0] $end
    $var wire 32 , register[7] [31:0] $end
    $var wire 32 - register[8] [31:0] $end
    $var wire 32 . register[9] [31:0] $end
    $var wire 32 / register[10] [31:0] $end
    $var wire 32 0 register[11] [31:0] $end
    $var wire 32 1 register[12] [31:0] $end
    $var wire 32 2 register[13] [31:0] $end
    $var wire 32 3 register[14] [31:0] $end
    $var wire 32 4 register[15] [31:0] $end
    $var wire 32 5 register[16] [31:0] $end
    $var wire 32 6 register[17] [31:0] $end
    $var wire 32 7 register[18] [31:0] $end
    $var wire 32 8 register[19] [31:0] $end
    $var wire 32 9 register[20] [31:0] $end
    $var wire 32 : register[21] [31:0] $end
    $var wire 32 ; register[22] [31:0] $end
    $var wire 32 < register[23] [31:0] $end
    $var wire 32 = register[24] [31:0] $end
    $var wire 32 > register[25] [31:0] $end
    $var wire 32 ? register[26] [31:0] $end
    $var wire 32 @ register[27] [31:0] $end
    $var wire 32 A register[28] [31:0] $end
    $var wire 32 B register[29] [31:0] $end
    $var wire 32 C register[30] [31:0] $end
    $var wire 32 D register[31] [31:0] $end
    $scope module unnamedblk1 $end
     $var wire 32 j! i [31:0] $end
    $upscope $end
   $upscope $end
   $scope module PC_MUX $end
    $var wire 2 u! SEL [1:0] $end
    $var wire 32 !! D0 [31:0] $end
    $var wire 32 v! D1 [31:0] $end
    $var wire 32 v! D2 [31:0] $end
    $var wire 32 v! D3 [31:0] $end
    $var wire 32 !! DOUT [31:0] $end
   $upscope $end
   $scope module RF_MUX $end
    $var wire 2 y SEL [1:0] $end
    $var wire 32 m D0 [31:0] $end
    $var wire 32 v! D1 [31:0] $end
    $var wire 32 ,! D2 [31:0] $end
    $var wire 32 t D3 [31:0] $end
    $var wire 32 0! DOUT [31:0] $end
   $upscope $end
   $scope module SRC_A_MUX $end
    $var wire 1 T! SEL $end
    $var wire 32 Q! D0 [31:0] $end
    $var wire 32 S! D1 [31:0] $end
    $var wire 32 a! DOUT [31:0] $end
   $upscope $end
   $scope module SRC_B_MUX $end
    $var wire 2 U! SEL [1:0] $end
    $var wire 32 R! D0 [31:0] $end
    $var wire 32 S! D1 [31:0] $end
    $var wire 32 O! D2 [31:0] $end
    $var wire 32 v! D3 [31:0] $end
    $var wire 32 b! DOUT [31:0] $end
   $upscope $end
   $scope module SW_MUX $end
    $var wire 2 1! SEL [1:0] $end
    $var wire 32 b! D0 [31:0] $end
    $var wire 32 f! D1 [31:0] $end
    $var wire 32 6! D2 [31:0] $end
    $var wire 32 t D3 [31:0] $end
    $var wire 32 g! DOUT [31:0] $end
   $upscope $end
  $upscope $end
 $upscope $end
$enddefinitions $end


#0
b00000000000000000000000000000000 #
b00000000000000000000000000000000 $
b00000000000000000000000000000000 %
b00000000000000000000000000000000 &
b00000000000000000000000000000000 '
b00000000000000000000000000000000 (
b00000000000000000000000000000000 )
b00000000000000000000000000000000 *
b00000000000000000000000000000000 +
b00000000000000000000000000000000 ,
b00000000000000000000000000000000 -
b00000000000000000000000000000000 .
b00000000000000000000000000000000 /
b00000000000000000000000000000000 0
b00000000000000000000000000000000 1
b00000000000000000000000000000000 2
b00000000000000000000000000000000 3
b00000000000000000000000000000000 4
b00000000000000000000000000000000 5
b00000000000000000000000000000000 6
b00000000000000000000000000000000 7
b00000000000000000000000000000000 8
b00000000000000000000000000000000 9
b00000000000000000000000000000000 :
b00000000000000000000000000000000 ;
b00000000000000000000000000000000 <
b00000000000000000000000000000000 =
b00000000000000000000000000000000 >
b00000000000000000000000000000000 ?
b00000000000000000000000000000000 @
b00000000000000000000000000000000 A
b00000000000000000000000000000000 B
b00000000000000000000000000000000 C
b00000000000000000000000000000000 D
b00000000000000000000000000000000 E
b00000000000000000000000000000000 F
b00000000000000000000000000000000 G
b00000000000000000000000000000000 H
b00000000000000000000000000000000 I
b00000000000000000000000000000000 J
0K
b00 L
b0000 M
b00000000000000000000000000000000 N
0O
0P
0Q
b00000000000000000000000000000000 R
b00 S
b00000 T
b00000000000000000000000000000000 U
0V
b00000000000000000000000000000000 W
b00000000000000000000000000000000 X
b00000000000000000000000000000000 Y
b00000000000000000000000000000000 Z
b00000000000000000000000000000000 [
b00000000000000000000000000000000 \
b00000000000000000000000000000000 ]
0^
b00 _
b0000 `
b00000000000000000000000000000000 a
0b
0c
0d
b00000000000000000000000000000000 e
b00 f
b00000 g
b00000000000000000000000000000000 h
0i
b00000000000000000000000000000000 j
b00000000000000000000000000000000 k
b00000000000000000000000000000000 l
b00000000000000000000000000000000 m
b00000000000000000000000000000000 n
b00000000000000000000000000000000 o
b00000000000000000000000000000000 p
0q
b00 r
b0000 s
b00000000000000000000000000000000 t
0u
0v
0w
b00000000000000000000000000000000 x
b00 y
b00000 z
b00000000000000000000000000000000 {
0|
b00000000000000000000000000000000 }
b00000000000000000000000000000000 ~
b00000000000000000000000000000100 !!
b00000000000000000000000000000000 "!
0#!
b00 $!
b0000 %!
0&!
0'!
0(!
b00 )!
b000 *!
b00000000000000000000000000000000 +!
b00000000000000000000000000000000 ,!
0-!
b00 .!
b00 /!
b00000000000000000000000000000000 0!
b00 1!
02!
03!
04!
05!
b00000000000000000000000000000000 6!
b0000000 7!
b000 8!
09!
b00000 :!
b00000 ;!
0<!
0=!
0>!
0?!
0@!
b0000000000000000000000000 A!
b00000000000000000000000000000000 B!
b00000000000000000000000000000000 C!
b00000000000000000000000000000000 D!
b00000000000000000000000000000000 E!
b00000000000000000000000000000000 F!
0G!
b00000000000000 H!
b00000000000000 I!
0J!
b00000000000000000000000000000000 K!
b00000000000000000000000000000000 L!
1M!
b00000000000000000000000000000000 N!
b00000000000000000000000000000000 O!
b00000000000000000000000000000000 P!
b00000000000000000000000000000000 Q!
b00000000000000000000000000000000 R!
b00000000000000000000000000000000 S!
0T!
b00 U!
b0000 V!
b00000000000000000000000000000000 W!
0X!
0Y!
0Z!
b00000000000000000000000000000000 [!
b00 \!
b00000 ]!
b00000000000000000000000000000000 ^!
0_!
b00000000000000000000000000000000 `!
b00000000000000000000000000000000 a!
b00000000000000000000000000000000 b!
b00000000000000000000000000000000 c!
0d!
b00000000000000000000000000000000 e!
b00000000000000000000000000000000 f!
b00000000000000000000000000000000 g!
0h!
1i!
b00000000000000000000000000100000 j!
0k!
b00000000000000000000000000000000 l!
b00000000000000000000000000000000 m!
b00000000000000000000000000000000 n!
b00000000000000000000000000000000 o!
b00000000000000000000000000000000 p!
b000 q!
b00000000000000000000000000001110 r!
1s!
b00000000000000000000000000000000 t!
b00 u!
b00000000000000000000000000000000 v!
#5000
#10000
b00000000101001010000010100010011 ~
1h!
#15000
0h!
#20000
1h!
#25000
0h!
#30000
1h!
#35000
0h!
#40000
1h!
#45000
0h!
#50000
1h!
#55000
0h!
#60000
1h!
#65000
0h!
#70000
1h!
#75000
0h!
#80000
1h!
#85000
0h!
#90000
1h!
#95000
0h!
#100000
1h!
#105000
0h!
#110000
1h!
#115000
0h!
#120000
1h!
#125000
0h!
#130000
1h!
#135000
0h!
#140000
1h!
#145000
0h!
#150000
1h!
#155000
0h!
#160000
1h!
#165000
0h!
#170000
1h!
#175000
0h!
#180000
1h!
#185000
0h!
#190000
1h!
#195000
0h!
#200000
b00000000101001010000010100010011 E
b00000000000000000000000000000100 G
b00000000000000000000000000001000 !!
b00000000000000000000000000000100 "!
b01 $!
1&!
b11 )!
b00000000000000000000000000001010 +!
b0010011 7!
b01010 :!
b01010 ;!
b0000000010100101000001010 A!
b00000000101001010000000000000000 B!
b00000000000000000000000000001010 C!
b00000000000000000000000000001010 D!
b00000000000000000000000000001010 E!
b00000000000001010000000000001010 F!
b00000000000001 H!
1h!
0i!
#205000
b00000000101001010000010100010011 N!
b00000000000000000000000000000100 P!
b00000000000000000000000000001010 S!
b01 U!
1Z!
b11 \!
b01010 ]!
b00000000000000000000000000001010 b!
b00000000000000000000000000001010 c!
1d!
b00000000000000000000000000001010 f!
b00000000000000000000000000001010 g!
0h!
#210000
b00000000101001000000010000110011 E
b00000000000000000000000000000100 F
b00000000000000000000000000001000 G
b00000000101001010000010100010011 X
b00000000000000000000000000000100 Z
b01 _
b00000000000000000000000000001010 a
1d
b11 f
b01010 g
b00000000000000000000000000001010 j
b00000000101001000000010000110011 ~
b00000000000000000000000000001100 !!
b00000000000000000000000000001000 "!
b00 $!
1-!
b01 /!
b0110011 7!
b01000 :!
1=!
b0000000010100100000001000 A!
b00000000101001000000000000000000 B!
b00000000000000000000000000001000 D!
b00000000000000000000000000001000 E!
b00000000000001000000000000001010 F!
b00000000000010 H!
b00000000000010 I!
1h!
#215000
b00000000101001000000010000110011 N!
b00000000000000000000000000000100 O!
b00000000000000000000000000001000 P!
b00 U!
b01000 ]!
b00000000000000000000000000000000 b!
b00000000000000000000000000000000 g!
0h!
#220000
b00000000000000000110010010110111 E
b00000000000000000000000000001000 F
b00000000000000000000000000001100 G
b00000000101001000000010000110011 X
b00000000000000000000000000000100 Y
b00000000000000000000000000001000 Z
b00 _
b01000 g
b00000000000000000000000000000000 j
b00000000000000000000000000000100 m
b01 r
b00000000000000000000000000001010 t
1w
b11 y
b01010 z
1|
b00000000000000000110010010110111 ~
b00000000000000000000000000010000 !!
b00000000000000000000000000001100 "!
1#!
b1001 %!
b011 *!
b00000000000000000110000000000000 +!
b00 /!
b00000000000000000000000000001010 0!
b0110111 7!
b110 8!
b00000 :!
b00000 ;!
0=!
b0000000000000000011001001 A!
b00000000000000000110000000000000 B!
b00000000000000000000000000000000 C!
b00000000000000000000000000001001 D!
b00000000000000000000100000001000 E!
b00000000000000000110000000000000 F!
b00000000000011 H!
b00000000000000000000000000000000 c!
0d!
b00000000000000000000000000000000 f!
1h!
#225000
b00000000000000000110010010110111 N!
b00000000000000000000000000001000 O!
b00000000000000000000000000001100 P!
b00000000000000000110000000000000 S!
1T!
b1001 V!
b01001 ]!
b00000000000000000110000000000000 a!
b00000000000000000110000000000000 c!
1d!
b00000000000000000110000000000000 e!
0h!
#230000
b00000000000000000000000000001010 /
b00000000100001001010000000100011 E
b00000000000000000000000000001100 F
b00000000000000000000000000010000 G
b00000000000000000110010010110111 X
b00000000000000000000000000001000 Y
b00000000000000000000000000001100 Z
1^
b1001 `
b00000000000000000110000000000000 a
b01001 g
b00000000000000000000000000000100 l
b00000000000000000000000000001000 m
b00 r
b01000 z
b00000000100001001010000000100011 ~
b00000000000000000000000000010100 !!
b00000000000000000000000000010000 "!
0#!
b01 $!
b0000 %!
0&!
1'!
b00 )!
b001 *!
b00000000000000000000000000000000 +!
b01 .!
b10 1!
b00000000000000000000000000001010 6!
b0100011 7!
b010 8!
b01001 :!
b01000 ;!
1<!
1?!
b0000000010000100101000000 A!
b00000000100001001010000000000000 B!
b00000000000000000000000000001000 C!
b00000000000000000000000000000000 D!
b00000000000000000000000000000000 E!
b00000000000001001010000000001000 F!
b00000000000100 H!
b01100000000000 I!
b00000000000000000000000000001010 g!
1h!
#235000
b00000000100001001010000000100011 N!
b00000000000000000000000000001100 O!
b00000000000000000000000000010000 P!
b00000000000000000000000000000000 S!
0T!
b01 U!
b0000 V!
1X!
0Z!
b00 \!
b00000 ]!
b00000000000000000000000000000000 a!
0h!
#240000
b00000000000000000000000000001010 -
b00000000000001001010010110000011 E
b00000000000000000000000000010000 F
b00000000000000000000000000010100 G
b00000000100001001010000000100011 X
b00000000000000000000000000001100 Y
b00000000000000000000000000010000 Z
0^
b01 _
b0000 `
1b
0d
b00 f
b00000 g
b00000000000000000000000000001010 j
b00000000000000000000000000001000 l
b00000000000000000000000000001100 m
1q
b1001 s
b00000000000000000110000000000000 t
b01001 z
b00000000000001001010010110000011 ~
b00000000000000000000000000011000 !!
b00000000000000000000000000010100 "!
1&!
0'!
1(!
b10 )!
b000 *!
b10 .!
b00000000000000000110000000000000 0!
b00 1!
15!
b0000011 7!
b00000 ;!
0<!
1>!
0?!
b0000000000000100101001011 A!
b00000000000001001010000000000000 B!
b00000000000000000000000000000000 C!
b00000000000000000000000000001011 D!
b00000000000000000000100000001010 E!
b00000000000001001010000000000000 F!
b00000000000101 H!
1J!
b00000000000000000000000000000000 g!
1h!
#245000
b00000000000001001010010110000011 N!
b00000000000000000000000000010000 O!
b00000000000000000000000000010100 P!
0X!
1Y!
1Z!
b10 \!
b01011 ]!
0h!
#250000
b00000000000000000110000000000000 .
b00000000010101011000010110010011 E
b00000000000000000000000000010100 F
b00000000000000000000000000011000 G
b00000000000001001010010110000011 X
b00000000000000000000000000010000 Y
b00000000000000000000000000010100 Z
0b
1c
1d
b10 f
b01011 g
b00000000000000000000000000000000 j
b00000000000000000000000000001100 l
b00000000000000000000000000010000 m
0q
b01 r
b0000 s
1u
0w
b00 y
b00000 z
b00000000010101011000010110010011 ~
b00000000000000000000000000011100 !!
b00000000000000000000000000011000 "!
0(!
b11 )!
b00000000000000000000000000000101 +!
b01 .!
b00000000000000000000000000010000 0!
12!
14!
05!
b00000000000000000110000000000000 6!
b0010011 7!
b000 8!
b01011 :!
b00101 ;!
1<!
0>!
1@!
b0000000001010101100001011 A!
b00000000010101011000000000000000 B!
b00000000000000000000000000000101 C!
b00000000000001011000100000000100 F!
b00000000000110 H!
0J!
0M!
1h!
#255000
b00000000000000000000000000010011 N!
0Y!
0Z!
b11 \!
b00000 ]!
0h!
#260000
b00000000000000000000000000011100 G
b00000000000000000000000000010011 X
0c
0d
b11 f
b00000 g
b00000000000000000000000000010000 l
b00000000000000000000000000010100 m
0u
1v
1w
b10 y
b01011 z
b00000000000000000110011000110111 ~
b00000000000000000000000000001010 ,!
b11 .!
b00000000000000000000000000001010 0!
02!
0<!
1>!
0@!
b00000000000000000000000000001010 K!
1M!
b00000000000000000000000000001010 c!
b00000000000000000000000000001010 e!
1h!
#265000
b00000000010101011000010110010011 N!
b00000000000000000000000000010100 O!
b00000000000000000000000000011100 P!
b00000000000000000000000000000101 S!
1Z!
b01011 ]!
b00000000000000000000000000000101 b!
b00000000000000000000000000001111 c!
b00000000000000000000000000000101 f!
b00000000000000000000000000000101 g!
0h!
#270000
b00000000000000000000000000001010 0
b00000000000000000110011000110111 E
b00000000000000000000000000011000 F
b00000000010101011000010110010011 X
b00000000000000000000000000010100 Y
b00000000000000000000000000011100 Z
b00000000000000000000000000001111 a
1d
b01011 g
b00000000000000000000000000000101 j
0v
0w
b11 y
b00000 z
b00000000000000000000000000100000 !!
b00000000000000000000000000011100 "!
1#!
b00 $!
b1001 %!
b011 *!
b00000000000000000110000000000000 +!
b00 .!
b00000000000000000110000000000000 0!
04!
b0110111 7!
b110 8!
b00000 :!
b00000 ;!
0>!
b0000000000000000011001100 A!
b00000000000000000110000000000000 B!
b00000000000000000000000000000000 C!
b00000000000000000000000000001100 D!
b00000000000000000000000000001100 E!
b00000000000000000110000000000000 F!
b00000000000111 H!
b00000000000011 I!
b00000000000000000000000000000101 c!
b00000000000000000000000000000000 e!
1h!
#275000
b00000000000000000110011000110111 N!
b00000000000000000000000000011000 O!
b00000000000000000110000000000000 S!
1T!
b00 U!
b1001 V!
b01100 ]!
b00000000000000000110000000000000 a!
b00000000000000000000000000000000 b!
b00000000000000000110000000000000 c!
b00000000000000000110000000000000 e!
b00000000000000000000000000000000 f!
b00000000000000000000000000000000 g!
0h!
#280000
b00000000000000000110000000000000 #
b00000000110001001010000000100011 E
b00000000000000000000000000011100 F
b00000000000000000000000000100000 G
b00000000000000000110011000110111 X
b00000000000000000000000000011000 Y
1^
b00 _
b1001 `
b00000000000000000110000000000000 a
b01100 g
b00000000000000000000000000000000 j
b00000000000000000000000000010100 l
b00000000000000000000000000011100 m
b00000000000000000000000000001111 t
1w
b01011 z
b00000000110001001010000000100011 ~
b00000000000000000000000000100100 !!
b00000000000000000000000000100000 "!
0#!
b01 $!
b0000 %!
0&!
1'!
b00 )!
b001 *!
b00000000000000000000000000000000 +!
b00000000000000000000000000001111 0!
b10 1!
b0100011 7!
b010 8!
b01001 :!
b01100 ;!
1=!
b0000000011000100101000000 A!
b00000000110001001010000000000000 B!
b00000000000000000000000000001100 C!
b00000000000000000000000000000000 D!
b00000000000000000000000000000000 E!
b00000000000001001010000000001100 F!
b00000000001000 H!
b01100000000000 I!
b00000000000000000110000000000000 g!
1h!
#285000
b00000000110001001010000000100011 N!
b00000000000000000000000000011100 O!
b00000000000000000000000000100000 P!
b00000000000000000110000000000000 Q!
b00000000000000000000000000000000 S!
0T!
b01 U!
b0000 V!
1X!
0Z!
b00 \!
b00000 ]!
0h!
#290000
b00000000000000000000000000001111 0
b00000000000001001010011000000011 E
b00000000000000000000000000100000 F
b00000000000000000000000000100100 G
b00000000110001001010000000100011 X
b00000000000000000000000000011100 Y
b00000000000000000000000000100000 Z
b00000000000000000110000000000000 [
0^
b01 _
b0000 `
1b
0d
b00 f
b00000 g
b00000000000000000110000000000000 j
b00000000000000000000000000011000 l
1q
b00 r
b1001 s
b00000000000000000110000000000000 t
b01100 z
b00000000000001001010011000000011 ~
b00000000000000000000000000101000 !!
b00000000000000000000000000100100 "!
1&!
0'!
1(!
b10 )!
b000 *!
b00000000000000000110000000000000 0!
b00 1!
15!
b00000000000000000000000000001111 6!
b0000011 7!
b00000 ;!
0=!
b0000000000000100101001100 A!
b00000000000001001010000000000000 B!
b00000000000000000000000000000000 C!
b00000000000000000000000000001100 D!
b00000000000000000000000000001100 E!
b00000000000001001010000000000000 F!
b00000000001001 H!
1J!
b00000000000000000000000000000000 g!
1h!
#295000
b00000000000001001010011000000011 N!
b00000000000000000000000000100000 O!
b00000000000000000000000000100100 P!
0X!
1Y!
1Z!
b10 \!
b01100 ]!
0h!
#300000
b00000000000000000000000000001010 $
b00000000000000000110000000000000 1
b00000000100001100000011000010011 E
b00000000000000000000000000100100 F
b00000000000000000000000000101000 G
b00000000000001001010011000000011 X
b00000000000000000000000000100000 Y
b00000000000000000000000000100100 Z
0b
1c
1d
b10 f
b01100 g
b00000000000000000000000000000000 j
b00000000000000000000000000011100 l
b00000000000000000000000000100000 m
b00000000000000000110000000000000 n
0q
b01 r
b0000 s
1u
0w
b00 y
b00000 z
b00000000100001100000011000010011 ~
b00000000000000000000000000101100 !!
b00000000000000000000000000101000 "!
0(!
b11 )!
b00000000000000000000000000001000 +!
b01 .!
b00000000000000000000000000100000 0!
12!
14!
05!
b00000000000000000110000000000000 6!
b0010011 7!
b000 8!
b01100 :!
b01000 ;!
1<!
1@!
b0000000010000110000001100 A!
b00000000100001100000000000000000 B!
b00000000000000000000000000001000 C!
b00000000000001100000000000001000 F!
b00000000001010 H!
0J!
0M!
1h!
#305000
b00000000000000000000000000010011 N!
b00000000000000000000000000000000 Q!
0Y!
0Z!
b11 \!
b00000 ]!
b00000000000000000000000000000000 a!
0h!
#310000
b00000000000000000000000000101100 G
b00000000000000000000000000010011 X
b00000000000000000000000000000000 [
0c
0d
b11 f
b00000 g
b00000000000000000000000000100000 l
b00000000000000000000000000100100 m
0u
1v
1w
b10 y
b01100 z
b00000000000001100010010010000011 ~
b00000000000000000110000000000000 ,!
b11 .!
b00000000000000000110000000000000 0!
02!
0<!
1>!
0@!
b00000000000000000110000000000000 K!
1M!
1h!
#315000
b00000000100001100000011000010011 N!
b00000000000000000000000000100100 O!
b00000000000000000000000000101100 P!
b00000000000000000110000000000000 Q!
b00000000000000000000000000001010 R!
b00000000000000000000000000001000 S!
1Z!
b01100 ]!
b00000000000000000110000000000000 a!
b00000000000000000000000000001000 b!
b00000000000000000110000000001000 c!
b00000000000000000000000000001000 f!
b00000000000000000000000000001000 g!
0h!
