tests/tb_OTTER/tb_OTTER.vcd
$version Generated by VerilatedVcd $end
$timescale 1ps $end
 $scope module $rootio $end
 $upscope $end
 $scope module tb_OTTER $end
  $var wire 1 S! CLK $end
  $var wire 1 T! RST $end
  $scope module UUT $end
   $var wire 1 S! CLK $end
   $var wire 1 T! RST $end
   $var wire 1 V! mem_err $end
   $scope module FE_DE $end
    $var wire 32 E IR [31:0] $end
    $var wire 32 F PC [31:0] $end
    $var wire 32 G NEXT_PC [31:0] $end
    $var wire 32 H RS1 [31:0] $end
    $var wire 32 I RS2 [31:0] $end
    $var wire 32 J IMM [31:0] $end
    $var wire 1 K SRC_A_SEL $end
    $var wire 2 L SRC_B_SEL [1:0] $end
    $var wire 4 M ALU_CTRL [3:0] $end
    $var wire 32 N ALU_RESULT [31:0] $end
    $var wire 1 O MEM_WRITE $end
    $var wire 1 P MEM_READ $end
    $var wire 1 Q REG_WRITE $end
    $var wire 32 R MEM_DATA [31:0] $end
    $var wire 2 S RF_MUX_SEL [1:0] $end
    $var wire 5 T DEST_REG [4:0] $end
    $var wire 32 U DEST_REG_DATA [31:0] $end
    $var wire 1 V ERR $end
   $upscope $end
   $scope module DE_EX $end
    $var wire 32 =! IR [31:0] $end
    $var wire 32 >! PC [31:0] $end
    $var wire 32 ?! NEXT_PC [31:0] $end
    $var wire 32 @! RS1 [31:0] $end
    $var wire 32 A! RS2 [31:0] $end
    $var wire 32 B! IMM [31:0] $end
    $var wire 1 C! SRC_A_SEL $end
    $var wire 2 D! SRC_B_SEL [1:0] $end
    $var wire 4 E! ALU_CTRL [3:0] $end
    $var wire 32 F! ALU_RESULT [31:0] $end
    $var wire 1 G! MEM_WRITE $end
    $var wire 1 H! MEM_READ $end
    $var wire 1 I! REG_WRITE $end
    $var wire 32 J! MEM_DATA [31:0] $end
    $var wire 2 K! RF_MUX_SEL [1:0] $end
    $var wire 5 L! DEST_REG [4:0] $end
    $var wire 32 M! DEST_REG_DATA [31:0] $end
    $var wire 1 N! ERR $end
   $upscope $end
   $scope module EX_MEM $end
    $var wire 32 W IR [31:0] $end
    $var wire 32 X PC [31:0] $end
    $var wire 32 Y NEXT_PC [31:0] $end
    $var wire 32 Z RS1 [31:0] $end
    $var wire 32 [ RS2 [31:0] $end
    $var wire 32 \ IMM [31:0] $end
    $var wire 1 ] SRC_A_SEL $end
    $var wire 2 ^ SRC_B_SEL [1:0] $end
    $var wire 4 _ ALU_CTRL [3:0] $end
    $var wire 32 ` ALU_RESULT [31:0] $end
    $var wire 1 a MEM_WRITE $end
    $var wire 1 b MEM_READ $end
    $var wire 1 c REG_WRITE $end
    $var wire 32 d MEM_DATA [31:0] $end
    $var wire 2 e RF_MUX_SEL [1:0] $end
    $var wire 5 f DEST_REG [4:0] $end
    $var wire 32 g DEST_REG_DATA [31:0] $end
    $var wire 1 h ERR $end
   $upscope $end
   $scope module MEM_WB $end
    $var wire 32 i IR [31:0] $end
    $var wire 32 j PC [31:0] $end
    $var wire 32 k NEXT_PC [31:0] $end
    $var wire 32 l RS1 [31:0] $end
    $var wire 32 m RS2 [31:0] $end
    $var wire 32 n IMM [31:0] $end
    $var wire 1 o SRC_A_SEL $end
    $var wire 2 p SRC_B_SEL [1:0] $end
    $var wire 4 q ALU_CTRL [3:0] $end
    $var wire 32 r ALU_RESULT [31:0] $end
    $var wire 1 s MEM_WRITE $end
    $var wire 1 t MEM_READ $end
    $var wire 1 u REG_WRITE $end
    $var wire 32 v MEM_DATA [31:0] $end
    $var wire 2 w RF_MUX_SEL [1:0] $end
    $var wire 5 x DEST_REG [4:0] $end
    $var wire 32 y DEST_REG_DATA [31:0] $end
    $var wire 1 z ERR $end
   $upscope $end
   $var wire 32 { ir [31:0] $end
   $var wire 32 | pc_in [31:0] $end
   $var wire 32 } pc_out [31:0] $end
   $var wire 32 | nextpc [31:0] $end
   $var wire 32 W! u_type [31:0] $end
   $var wire 32 X! i_type [31:0] $end
   $var wire 32 Y! s_type [31:0] $end
   $var wire 32 Z! b_type [31:0] $end
   $var wire 32 [! j_type [31:0] $end
   $var wire 32 # rs1 [31:0] $end
   $var wire 32 $ rs2 [31:0] $end
   $var wire 3 \! pc_sel [2:0] $end
   $var wire 1 ~ src_a_sel $end
   $var wire 2 !! src_b_sel [1:0] $end
   $var wire 4 "! alu_ctrl [3:0] $end
   $var wire 1 #! regwrite $end
   $var wire 1 $! memwrite $end
   $var wire 1 %! memread $end
   $var wire 2 &! rf_sel [1:0] $end
   $var wire 3 '! imm_sel [2:0] $end
   $var wire 32 (! imm [31:0] $end
   $var wire 32 O! src_a_out [31:0] $end
   $var wire 32 P! src_b_out [31:0] $end
   $var wire 32 Q! alu_result [31:0] $end
   $var wire 32 )! memout [31:0] $end
   $var wire 1 *! memerr $end
   $var wire 1 R! zero $end
   $var wire 2 w rf_mux_sel [1:0] $end
   $var wire 32 k rf_nextPC [31:0] $end
   $var wire 32 r rf_alu_result [31:0] $end
   $var wire 32 +! rf_rd [31:0] $end
   $scope module OTTER_ALU $end
    $var wire 32 O! SRC_A [31:0] $end
    $var wire 32 P! SRC_B [31:0] $end
    $var wire 4 E! ALU_CTRL [3:0] $end
    $var wire 32 Q! RESULT [31:0] $end
    $var wire 1 R! ZERO $end
   $upscope $end
   $scope module OTTER_CU $end
    $var wire 7 ,! OPCODE [6:0] $end
    $var wire 3 -! FUNC3 [2:0] $end
    $var wire 1 .! FUNC7 $end
    $var wire 1 #! REG_WRITE $end
    $var wire 1 $! MEM_WRITE $end
    $var wire 1 %! MEM_READ2 $end
    $var wire 2 &! RF_SEL [1:0] $end
    $var wire 4 "! ALU_FUN [3:0] $end
    $var wire 1 ~ ALU_SRCA $end
    $var wire 2 !! ALU_SRCB [1:0] $end
    $var wire 3 \! PC_SRC [2:0] $end
    $var wire 3 '! IMM_SEL [2:0] $end
   $upscope $end
   $scope module OTTER_IG $end
    $var wire 25 /! IR [24:0] $end
    $var wire 3 '! IMM_SEL [2:0] $end
    $var wire 32 (! IMM [31:0] $end
    $var wire 32 0! U_TYPE [31:0] $end
    $var wire 32 1! I_TYPE [31:0] $end
    $var wire 32 2! S_TYPE [31:0] $end
    $var wire 32 3! B_TYPE [31:0] $end
    $var wire 32 4! J_TYPE [31:0] $end
   $upscope $end
   $scope module OTTER_MEM $end
    $var wire 32 ]! ACTUAL_WIDTH [31:0] $end
    $var wire 32 } MEM_ADDR1 [31:0] $end
    $var wire 32 ` MEM_ADDR2 [31:0] $end
    $var wire 1 S! MEM_CLK $end
    $var wire 32 [ MEM_DIN2 [31:0] $end
    $var wire 1 a MEM_WRITE2 $end
    $var wire 1 ^! MEM_READ1 $end
    $var wire 1 b MEM_READ2 $end
    $var wire 32 _! IO_IN [31:0] $end
    $var wire 1 *! ERR $end
    $var wire 32 { MEM_DOUT1 [31:0] $end
    $var wire 32 )! MEM_DOUT2 [31:0] $end
    $var wire 1 5! IO_WR $end
    $var wire 14 6! memAddr1 [13:0] $end
    $var wire 14 7! memAddr2 [13:0] $end
    $var wire 1 8! memWrite2 $end
    $var wire 32 9! memOut2 [31:0] $end
    $var wire 32 :! ioIn_buffer [31:0] $end
   $upscope $end
   $scope module OTTER_PC $end
    $var wire 1 S! CLK $end
    $var wire 1 T! RST $end
    $var wire 1 `! PC_EN $end
    $var wire 32 | PC_IN [31:0] $end
    $var wire 32 } PC_OUT [31:0] $end
   $upscope $end
   $scope module OTTER_RF $end
    $var wire 1 S! CLK $end
    $var wire 5 ;! REG_ADDR1 [4:0] $end
    $var wire 5 <! REG_ADDR2 [4:0] $end
    $var wire 1 u WRITE_EN $end
    $var wire 5 x WRITE_ADDR [4:0] $end
    $var wire 32 +! WRITE_DATA [31:0] $end
    $var wire 32 # REG_1_DATA [31:0] $end
    $var wire 32 $ REG_2_DATA [31:0] $end
    $var wire 32 % register[0] [31:0] $end
    $var wire 32 & register[1] [31:0] $end
    $var wire 32 ' register[2] [31:0] $end
    $var wire 32 ( register[3] [31:0] $end
    $var wire 32 ) register[4] [31:0] $end
    $var wire 32 * register[5] [31:0] $end
    $var wire 32 + register[6] [31:0] $end
    $var wire 32 , register[7] [31:0] $end
    $var wire 32 - register[8] [31:0] $end
    $var wire 32 . register[9] [31:0] $end
    $var wire 32 / register[10] [31:0] $end
    $var wire 32 0 register[11] [31:0] $end
    $var wire 32 1 register[12] [31:0] $end
    $var wire 32 2 register[13] [31:0] $end
    $var wire 32 3 register[14] [31:0] $end
    $var wire 32 4 register[15] [31:0] $end
    $var wire 32 5 register[16] [31:0] $end
    $var wire 32 6 register[17] [31:0] $end
    $var wire 32 7 register[18] [31:0] $end
    $var wire 32 8 register[19] [31:0] $end
    $var wire 32 9 register[20] [31:0] $end
    $var wire 32 : register[21] [31:0] $end
    $var wire 32 ; register[22] [31:0] $end
    $var wire 32 < register[23] [31:0] $end
    $var wire 32 = register[24] [31:0] $end
    $var wire 32 > register[25] [31:0] $end
    $var wire 32 ? register[26] [31:0] $end
    $var wire 32 @ register[27] [31:0] $end
    $var wire 32 A register[28] [31:0] $end
    $var wire 32 B register[29] [31:0] $end
    $var wire 32 C register[30] [31:0] $end
    $var wire 32 D register[31] [31:0] $end
    $scope module unnamedblk1 $end
     $var wire 32 U! i [31:0] $end
    $upscope $end
   $upscope $end
   $scope module PC_MUX $end
    $var wire 2 a! SEL [1:0] $end
    $var wire 32 | D0 [31:0] $end
    $var wire 32 b! D1 [31:0] $end
    $var wire 32 b! D2 [31:0] $end
    $var wire 32 b! D3 [31:0] $end
    $var wire 32 | DOUT [31:0] $end
   $upscope $end
   $scope module RF_MUX $end
    $var wire 2 w SEL [1:0] $end
    $var wire 32 k D0 [31:0] $end
    $var wire 32 b! D1 [31:0] $end
    $var wire 32 )! D2 [31:0] $end
    $var wire 32 r D3 [31:0] $end
    $var wire 32 +! DOUT [31:0] $end
   $upscope $end
   $scope module SRC_A_MUX $end
    $var wire 1 C! SEL $end
    $var wire 32 @! D0 [31:0] $end
    $var wire 32 B! D1 [31:0] $end
    $var wire 32 O! DOUT [31:0] $end
   $upscope $end
   $scope module SRC_B_MUX $end
    $var wire 2 D! SEL [1:0] $end
    $var wire 32 A! D0 [31:0] $end
    $var wire 32 B! D1 [31:0] $end
    $var wire 32 >! D2 [31:0] $end
    $var wire 32 b! D3 [31:0] $end
    $var wire 32 P! DOUT [31:0] $end
   $upscope $end
  $upscope $end
 $upscope $end
$enddefinitions $end


#0
b00000000000000000000000000000000 #
b00000000000000000000000000000000 $
b00000000000000000000000000000000 %
b00000000000000000000000000000000 &
b00000000000000000000000000000000 '
b00000000000000000000000000000000 (
b00000000000000000000000000000000 )
b00000000000000000000000000000000 *
b00000000000000000000000000000000 +
b00000000000000000000000000000000 ,
b00000000000000000000000000000000 -
b00000000000000000000000000000000 .
b00000000000000000000000000000000 /
b00000000000000000000000000000000 0
b00000000000000000000000000000000 1
b00000000000000000000000000000000 2
b00000000000000000000000000000000 3
b00000000000000000000000000000000 4
b00000000000000000000000000000000 5
b00000000000000000000000000000000 6
b00000000000000000000000000000000 7
b00000000000000000000000000000000 8
b00000000000000000000000000000000 9
b00000000000000000000000000000000 :
b00000000000000000000000000000000 ;
b00000000000000000000000000000000 <
b00000000000000000000000000000000 =
b00000000000000000000000000000000 >
b00000000000000000000000000000000 ?
b00000000000000000000000000000000 @
b00000000000000000000000000000000 A
b00000000000000000000000000000000 B
b00000000000000000000000000000000 C
b00000000000000000000000000000000 D
b00000000000000000000000000000000 E
b00000000000000000000000000000000 F
b00000000000000000000000000000000 G
b00000000000000000000000000000000 H
b00000000000000000000000000000000 I
b00000000000000000000000000000000 J
0K
b00 L
b0000 M
b00000000000000000000000000000000 N
0O
0P
0Q
b00000000000000000000000000000000 R
b00 S
b00000 T
b00000000000000000000000000000000 U
0V
b00000000000000000000000000000000 W
b00000000000000000000000000000000 X
b00000000000000000000000000000000 Y
b00000000000000000000000000000000 Z
b00000000000000000000000000000000 [
b00000000000000000000000000000000 \
0]
b00 ^
b0000 _
b00000000000000000000000000000000 `
0a
0b
0c
b00000000000000000000000000000000 d
b00 e
b00000 f
b00000000000000000000000000000000 g
0h
b00000000000000000000000000000000 i
b00000000000000000000000000000000 j
b00000000000000000000000000000000 k
b00000000000000000000000000000000 l
b00000000000000000000000000000000 m
b00000000000000000000000000000000 n
0o
b00 p
b0000 q
b00000000000000000000000000000000 r
0s
0t
0u
b00000000000000000000000000000000 v
b00 w
b00000 x
b00000000000000000000000000000000 y
0z
b00000000000000000000000000000000 {
b00000000000000000000000000000100 |
b00000000000000000000000000000000 }
0~
b00 !!
b0000 "!
0#!
0$!
0%!
b00 &!
b000 '!
b00000000000000000000000000000000 (!
b00000000000000000000000000000000 )!
0*!
b00000000000000000000000000000000 +!
b0000000 ,!
b000 -!
0.!
b0000000000000000000000000 /!
b00000000000000000000000000000000 0!
b00000000000000000000000000000000 1!
b00000000000000000000000000000000 2!
b00000000000000000000000000000000 3!
b00000000000000000000000000000000 4!
05!
b00000000000000 6!
b00000000000000 7!
08!
b00000000000000000000000000000000 9!
b00000000000000000000000000000000 :!
b00000 ;!
b00000 <!
b00000000000000000000000000000000 =!
b00000000000000000000000000000000 >!
b00000000000000000000000000000000 ?!
b00000000000000000000000000000000 @!
b00000000000000000000000000000000 A!
b00000000000000000000000000000000 B!
0C!
b00 D!
b0000 E!
b00000000000000000000000000000000 F!
0G!
0H!
0I!
b00000000000000000000000000000000 J!
b00 K!
b00000 L!
b00000000000000000000000000000000 M!
0N!
b00000000000000000000000000000000 O!
b00000000000000000000000000000000 P!
b00000000000000000000000000000000 Q!
0R!
0S!
1T!
b00000000000000000000000000100000 U!
0V!
b00000000000000000000000000000000 W!
b00000000000000000000000000000000 X!
b00000000000000000000000000000000 Y!
b00000000000000000000000000000000 Z!
b00000000000000000000000000000000 [!
b000 \!
b00000000000000000000000000001110 ]!
1^!
b00000000000000000000000000000000 _!
0`!
b00 a!
b00000000000000000000000000000000 b!
#5000
#10000
b00000000101001010000010100010011 {
1S!
#15000
0S!
#20000
1S!
#25000
0S!
#30000
1S!
#35000
0S!
#40000
1S!
#45000
0S!
#50000
1S!
#55000
0S!
#60000
1S!
#65000
0S!
#70000
1S!
#75000
0S!
#80000
1S!
#85000
0S!
#90000
1S!
#95000
0S!
#100000
1S!
#105000
0S!
#110000
1S!
#115000
0S!
#120000
1S!
#125000
0S!
#130000
1S!
#135000
0S!
#140000
1S!
#145000
0S!
#150000
1S!
#155000
0S!
#160000
1S!
#165000
0S!
#170000
1S!
#175000
0S!
#180000
1S!
#185000
0S!
#190000
1S!
#195000
0S!
#200000
b00000000101001010000010100010011 E
b00000000000000000000000000000100 G
b00000000000000000000000000001000 |
b00000000000000000000000000000100 }
b01 !!
1#!
b11 &!
b00000000000000000000000000001010 (!
b0010011 ,!
b0000000010100101000001010 /!
b00000000101001010000000000000000 0!
b00000000000000000000000000001010 1!
b00000000000000000000000000001010 2!
b00000000000000000000000000001010 3!
b00000000000001010000000000001010 4!
b00000000000001 6!
b01010 ;!
b01010 <!
1S!
0T!
#205000
b00000000101001010000010100010011 =!
b00000000000000000000000000000100 ?!
b00000000000000000000000000001010 B!
b01 D!
1I!
b11 K!
b01010 L!
b00000000000000000000000000001010 P!
b00000000000000000000000000001010 Q!
1R!
0S!
#210000
b00000000000000000000000000010011 E
b00000000000000000000000000000100 F
b00000000000000000000000000001000 G
b00000000101001010000010100010011 W
b00000000000000000000000000000100 Y
b01 ^
b00000000000000000000000000001010 `
1c
b11 e
b01010 f
b00000000000000000000000000010011 {
b00000000000000000000000000001100 |
b00000000000000000000000000001000 }
b00000000000000000000000000000000 (!
1*!
b0000000000000000000000000 /!
b00000000000000000000000000000000 0!
b00000000000000000000000000000000 1!
b00000000000000000000000000000000 2!
b00000000000000000000000000000000 3!
b00000000000000000000000000000000 4!
b00000000000010 6!
b00000000000010 7!
b00000 ;!
b00000 <!
1S!
#215000
b00000000000000000000000000010011 =!
b00000000000000000000000000000100 >!
b00000000000000000000000000001000 ?!
b00000000000000000000000000000000 B!
b00000 L!
b00000000000000000000000000000000 P!
b00000000000000000000000000000000 Q!
0R!
0S!
#220000
b00000000000000000000000000001000 F
b00000000000000000000000000001100 G
b00000000000000000000000000010011 W
b00000000000000000000000000000100 X
b00000000000000000000000000001000 Y
b00000000000000000000000000000000 `
b00000 f
b00000000000000000000000000000100 k
b01 p
b00000000000000000000000000001010 r
1u
b11 w
b01010 x
1z
b00000000000000000000000000010000 |
b00000000000000000000000000001100 }
0*!
b00000000000000000000000000001010 +!
b00000000000011 6!
b00000000000000 7!
1S!
#225000
b00000000000000000000000000001000 >!
b00000000000000000000000000001100 ?!
0S!
#230000
b00000000000000000000000000001010 $
b00000000000000000000000000001010 /
b00000000101001000000010000110011 E
b00000000000000000000000000001100 F
b00000000000000000000000000010000 G
b00000000000000000000000000001000 X
b00000000000000000000000000001100 Y
b00000000000000000000000000000100 j
b00000000000000000000000000001000 k
b00000000000000000000000000000000 r
b00000 x
0z
b00000000101001000000010000110011 {
b00000000000000000000000000010100 |
b00000000000000000000000000010000 }
b00 !!
b00000000000000000000000000001010 (!
b00000000000000000000000000000000 +!
b0110011 ,!
b0000000010100100000001000 /!
b00000000101001000000000000000000 0!
b00000000000000000000000000001010 1!
b00000000000000000000000000001000 2!
b00000000000000000000000000001000 3!
b00000000000001000000000000001010 4!
b00000000000100 6!
b01000 ;!
b01010 <!
1S!
#235000
b00000000101001000000010000110011 =!
b00000000000000000000000000001100 >!
b00000000000000000000000000010000 ?!
b00000000000000000000000000001010 A!
b00000000000000000000000000001010 B!
b00 D!
b01000 L!
b00000000000000000000000000001010 P!
b00000000000000000000000000001010 Q!
1R!
0S!
#240000
b00000000000000000000000000000000 $
b00000000000000000000000000010011 E
b00000000000000000000000000010000 F
b00000000000000000000000000010100 G
b00000000101001000000010000110011 W
b00000000000000000000000000001100 X
b00000000000000000000000000010000 Y
b00000000000000000000000000001010 [
b00 ^
b00000000000000000000000000001010 `
b01000 f
b00000000000000000000000000001000 j
b00000000000000000000000000001100 k
b00000000000000000000000000010011 {
b00000000000000000000000000011000 |
b00000000000000000000000000010100 }
b01 !!
b00000000000000000000000000000000 (!
1*!
b0010011 ,!
b0000000000000000000000000 /!
b00000000000000000000000000000000 0!
b00000000000000000000000000000000 1!
b00000000000000000000000000000000 2!
b00000000000000000000000000000000 3!
b00000000000000000000000000000000 4!
b00000000000101 6!
b00000000000010 7!
b00000 ;!
b00000 <!
1S!
#245000
b00000000000000000000000000010011 =!
b00000000000000000000000000010000 >!
b00000000000000000000000000010100 ?!
b00000000000000000000000000000000 A!
b00000000000000000000000000000000 B!
b01 D!
b00000 L!
b00000000000000000000000000000000 P!
b00000000000000000000000000000000 Q!
0R!
0S!
#250000
b00000000000000000000000000010100 F
b00000000000000000000000000011000 G
b00000000000000000000000000010011 W
b00000000000000000000000000010000 X
b00000000000000000000000000010100 Y
b00000000000000000000000000000000 [
b01 ^
b00000000000000000000000000000000 `
b00000 f
b00000000000000000000000000001100 j
b00000000000000000000000000010000 k
b00000000000000000000000000001010 m
b00 p
b00000000000000000000000000001010 r
b01000 x
1z
b00000000000000000000000000011100 |
b00000000000000000000000000011000 }
0*!
b00000000000000000000000000001010 +!
b00000000000110 6!
b00000000000000 7!
1S!
#255000
b00000000000000000000000000010100 >!
b00000000000000000000000000011000 ?!
0S!
#260000
b00000000000000000000000000001010 -
b00000000000000000110010010110111 E
b00000000000000000000000000011000 F
b00000000000000000000000000011100 G
b00000000000000000000000000010100 X
b00000000000000000000000000011000 Y
b00000000000000000000000000010000 j
b00000000000000000000000000010100 k
b00000000000000000000000000000000 m
b01 p
b00000000000000000000000000000000 r
b00000 x
0z
b00000000000000000110010010110111 {
b00000000000000000000000000100000 |
b00000000000000000000000000011100 }
1~
b00 !!
b1001 "!
b011 '!
b00000000000000000110000000000000 (!
b00000000000000000000000000000000 +!
b0110111 ,!
b110 -!
b0000000000000000011001001 /!
b00000000000000000110000000000000 0!
b00000000000000000000000000001001 2!
b00000000000000000000100000001000 3!
b00000000000000000110000000000000 4!
b00000000000111 6!
1S!
#265000
b00000000000000000110010010110111 =!
b00000000000000000000000000011000 >!
b00000000000000000000000000011100 ?!
b00000000000000000110000000000000 B!
1C!
b00 D!
b1001 E!
b01001 L!
b00000000000000000110000000000000 O!
b00000000000000000110000000000000 Q!
1R!
0S!
#270000
b00000000000000000000000000010011 E
b00000000000000000000000000011100 F
b00000000000000000000000000100000 G
b00000000000000000110010010110111 W
b00000000000000000000000000011000 X
b00000000000000000000000000011100 Y
1]
b00 ^
b1001 _
b00000000000000000110000000000000 `
b01001 f
b00000000000000000000000000010100 j
b00000000000000000000000000011000 k
b00000000000000000000000000010011 {
b00000000000000000000000000100100 |
b00000000000000000000000000100000 }
0~
b01 !!
b0000 "!
b000 '!
b00000000000000000000000000000000 (!
1*!
b0010011 ,!
b000 -!
b0000000000000000000000000 /!
b00000000000000000000000000000000 0!
b00000000000000000000000000000000 2!
b00000000000000000000000000000000 3!
b00000000000000000000000000000000 4!
b00000000001000 6!
b01100000000000 7!
1S!
#275000
b00000000000000000000000000010011 =!
b00000000000000000000000000011100 >!
b00000000000000000000000000100000 ?!
b00000000000000000000000000000000 B!
0C!
b01 D!
b0000 E!
b00000 L!
b00000000000000000000000000000000 O!
b00000000000000000000000000000000 Q!
0R!
0S!
#280000
b00000000000000000000000000100000 F
b00000000000000000000000000100100 G
b00000000000000000000000000010011 W
b00000000000000000000000000011100 X
b00000000000000000000000000100000 Y
0]
b01 ^
b0000 _
b00000000000000000000000000000000 `
b00000 f
b00000000000000000000000000011000 j
b00000000000000000000000000011100 k
1o
b00 p
b1001 q
b00000000000000000110000000000000 r
b01001 x
1z
b00000000000000000000000000101000 |
b00000000000000000000000000100100 }
0*!
b00000000000000000110000000000000 +!
b00000000001001 6!
b00000000000000 7!
1S!
#285000
b00000000000000000000000000100000 >!
b00000000000000000000000000100100 ?!
0S!
#290000
b00000000000000000110000000000000 .
b00000000000000000000000000100100 F
b00000000000000000000000000101000 G
b00000000000000000000000000100000 X
b00000000000000000000000000100100 Y
b00000000000000000000000000011100 j
b00000000000000000000000000100000 k
0o
b01 p
b0000 q
b00000000000000000000000000000000 r
b00000 x
0z
b00000000000000000000000000101100 |
b00000000000000000000000000101000 }
b00000000000000000000000000000000 +!
b00000000001010 6!
1S!
#295000
b00000000000000000000000000100100 >!
b00000000000000000000000000101000 ?!
0S!
#300000
b00000000000000000110000000000000 #
b00000000000000000000000000001010 $
b00000000100001001010000000100011 E
b00000000000000000000000000101000 F
b00000000000000000000000000101100 G
b00000000000000000000000000100100 X
b00000000000000000000000000101000 Y
b00000000000000000000000000100000 j
b00000000000000000000000000100100 k
b00000000100001001010000000100011 {
b00000000000000000000000000110000 |
b00000000000000000000000000101100 }
0#!
1$!
b00 &!
b001 '!
b0100011 ,!
b010 -!
b0000000010000100101000000 /!
b00000000100001001010000000000000 0!
b00000000000000000000000000001000 1!
b00000000000001001010000000001000 4!
b00000000001011 6!
b01001 ;!
b01000 <!
1S!
#305000
b00000000100001001010000000100011 =!
b00000000000000000000000000101000 >!
b00000000000000000000000000101100 ?!
b00000000000000000110000000000000 @!
b00000000000000000000000000001010 A!
1G!
0I!
b00 K!
b00000000000000000110000000000000 O!
b00000000000000000110000000000000 Q!
1R!
0S!
#310000
b00000000000000000000000000000000 #
b00000000000000000000000000000000 $
b00000000000000000000000000010011 E
b00000000000000000000000000101100 F
b00000000000000000000000000110000 G
b00000000100001001010000000100011 W
b00000000000000000000000000101000 X
b00000000000000000000000000101100 Y
b00000000000000000110000000000000 Z
b00000000000000000000000000001010 [
b00000000000000000110000000000000 `
1a
0c
b00 e
b00000000000000000000000000100100 j
b00000000000000000000000000101000 k
b00000000000000000000000000010011 {
b00000000000000000000000000110100 |
b00000000000000000000000000110000 }
1#!
0$!
b11 &!
b000 '!
1*!
b0010011 ,!
b000 -!
b0000000000000000000000000 /!
b00000000000000000000000000000000 0!
b00000000000000000000000000000000 1!
b00000000000000000000000000000000 4!
b00000000001100 6!
b01100000000000 7!
18!
b00000 ;!
b00000 <!
1S!
#315000
b00000000000000000000000000010011 =!
b00000000000000000000000000101100 >!
b00000000000000000000000000110000 ?!
b00000000000000000000000000000000 @!
b00000000000000000000000000000000 A!
0G!
1I!
b11 K!
b00000000000000000000000000000000 O!
b00000000000000000000000000000000 Q!
0R!
0S!
#320000
b00000000000000000000000000110000 F
b00000000000000000000000000110100 G
b00000000000000000000000000010011 W
b00000000000000000000000000101100 X
b00000000000000000000000000110000 Y
b00000000000000000000000000000000 Z
b00000000000000000000000000000000 [
b00000000000000000000000000000000 `
0a
1c
b11 e
b00000000000000000000000000101000 j
b00000000000000000000000000101100 k
b00000000000000000110000000000000 l
b00000000000000000000000000001010 m
b00000000000000000110000000000000 r
1s
0u
b00 w
1z
b00000000000000000000000000111000 |
b00000000000000000000000000110100 }
0*!
b00000000000000000000000000101100 +!
b00000000001101 6!
b00000000000000 7!
08!
1S!
#325000
b00000000000000000000000000110000 >!
b00000000000000000000000000110100 ?!
0S!
#330000
b00000000000000000110000000000000 #
b00000000000001001010010110000011 E
b00000000000000000000000000110100 F
b00000000000000000000000000111000 G
b00000000000000000000000000110000 X
b00000000000000000000000000110100 Y
b00000000000000000000000000101100 j
b00000000000000000000000000110000 k
b00000000000000000000000000000000 l
b00000000000000000000000000000000 m
b00000000000000000000000000000000 r
0s
1u
b11 w
0z
b00000000000001001010010110000011 {
b00000000000000000000000000111100 |
b00000000000000000000000000111000 }
1%!
b10 &!
b00000000000000000000000000000000 +!
b0000011 ,!
b010 -!
b0000000000000100101001011 /!
b00000000000001001010000000000000 0!
b00000000000000000000000000001011 2!
b00000000000000000000100000001010 3!
b00000000000001001010000000000000 4!
b00000000001110 6!
b01001 ;!
1S!
#335000
b00000000000001001010010110000011 =!
b00000000000000000000000000110100 >!
b00000000000000000000000000111000 ?!
b00000000000000000110000000000000 @!
1H!
b10 K!
b01011 L!
b00000000000000000110000000000000 O!
b00000000000000000110000000000000 Q!
1R!
0S!
#340000
b00000000000000000000000000000000 #
b00000000000000000000000000000000 E
b00000000000000000000000000111000 F
b00000000000000000000000000111100 G
b00000000000001001010010110000011 W
b00000000000000000000000000110100 X
b00000000000000000000000000111000 Y
b00000000000000000110000000000000 Z
b00000000000000000110000000000000 `
1b
b10 e
b01011 f
b00000000000000000000000000110000 j
b00000000000000000000000000110100 k
b00000000000000000000000000000000 {
b00000000000000000000000001000000 |
b00000000000000000000000000111100 }
b00 !!
0#!
0%!
b00 &!
1*!
b0000000 ,!
b000 -!
b0000000000000000000000000 /!
b00000000000000000000000000000000 0!
b00000000000000000000000000000000 2!
b00000000000000000000000000000000 3!
b00000000000000000000000000000000 4!
b00000000001111 6!
b01100000000000 7!
b00000 ;!
1S!
#345000
b00000000000000000000000000000000 =!
b00000000000000000000000000111000 >!
b00000000000000000000000000111100 ?!
b00000000000000000000000000000000 @!
b00 D!
0H!
0I!
b00 K!
b00000 L!
b00000000000000000000000000000000 O!
b00000000000000000000000000000000 Q!
0R!
0S!
#350000
b00000000000000000000000000111100 F
b00000000000000000000000001000000 G
b00000000000000000000000000000000 W
b00000000000000000000000000111000 X
b00000000000000000000000000111100 Y
b00000000000000000000000000000000 Z
b00 ^
b00000000000000000000000000000000 `
0b
0c
b00 e
b00000 f
b00000000000000000000000000110100 j
b00000000000000000000000000111000 k
b00000000000000000110000000000000 l
b00000000000000000110000000000000 r
1t
b10 w
b01011 x
1z
b00000000000000000000000001000100 |
b00000000000000000000000001000000 }
b00000000000000000000000000001010 )!
0*!
b00000000000000000000000000001010 +!
b00000000010000 6!
b00000000000000 7!
b00000000000000000000000000001010 9!
1S!
#355000
b00000000000000000000000000111100 >!
b00000000000000000000000001000000 ?!
0S!
#360000
b00000000000000000000000000001010 0
b00000000000000000000000001000000 F
b00000000000000000000000001000100 G
b00000000000000000000000000111100 X
b00000000000000000000000001000000 Y
b00000000000000000000000000111000 j
b00000000000000000000000000111100 k
b00000000000000000000000000000000 l
b00 p
b00000000000000000000000000000000 r
0t
0u
b00 w
b00000 x
0z
b00000000000000000000000001001000 |
b00000000000000000000000001000100 }
b00000000000000000000000000111100 +!
b00000000010001 6!
1S!
#365000
b00000000000000000000000001000000 >!
b00000000000000000000000001000100 ?!
0S!
#370000
b00000000000000000000000001000100 F
b00000000000000000000000001001000 G
b00000000000000000000000001000000 X
b00000000000000000000000001000100 Y
b00000000000000000000000000111100 j
b00000000000000000000000001000000 k
b00000000000000000000000001001100 |
b00000000000000000000000001001000 }
b00000000000000000000000001000000 +!
b00000000010010 6!
1S!
#375000
b00000000000000000000000001000100 >!
b00000000000000000000000001001000 ?!
0S!
#380000
b00000000000000000000000001001000 F
b00000000000000000000000001001100 G
b00000000000000000000000001000100 X
b00000000000000000000000001001000 Y
b00000000000000000000000001000000 j
b00000000000000000000000001000100 k
b00000000000000000000000001010000 |
b00000000000000000000000001001100 }
b00000000000000000000000001000100 +!
b00000000010011 6!
1S!
#385000
b00000000000000000000000001001000 >!
b00000000000000000000000001001100 ?!
0S!
#390000
b00000000000000000000000001001100 F
b00000000000000000000000001010000 G
b00000000000000000000000001001000 X
b00000000000000000000000001001100 Y
b00000000000000000000000001000100 j
b00000000000000000000000001001000 k
b00000000000000000000000001010100 |
b00000000000000000000000001010000 }
b00000000000000000000000001001000 +!
b00000000010100 6!
1S!
#395000
b00000000000000000000000001001100 >!
b00000000000000000000000001010000 ?!
0S!
